//Maya ASCII 2017ff04 scene
//Name: grayScottMapTest.ma
//Last modified: Mon, Nov 27, 2017 01:48:54 AM
//Codeset: UTF-8
requires maya "2017ff04";
requires -nodeType "clapperShape" "Wedge" "0.1.15";
requires -nodeType "grayScottNode" -nodeType "grayScottShader" -dataType "edgeTreeData"
		 -dataType "grayScottData" "Troop" "2017.dev.999";
requires "stereoCamera" "10.0";
requires "stereoCamera" "10.0";
currentUnit -l centimeter -a degree -t film;
fileInfo "application" "maya";
fileInfo "product" "Maya 2017";
fileInfo "version" "2017";
fileInfo "cutIdentifier" "201702071345-1015190";
fileInfo "osv" "Mac OS X 10.12.6";
createNode transform -s -n "persp";
	rename -uid "69241F3F-F64B-1F75-89FD-A1A0DEDE5095";
	setAttr ".v" no;
	setAttr ".t" -type "double3" -0.078424121301481492 3.6157455642012466 -1.2219107521228532 ;
	setAttr ".r" -type "double3" -75.338352728911758 -361.79999999974632 9.9441402124816682e-17 ;
createNode camera -s -n "perspShape" -p "persp";
	rename -uid "33B85524-DA4E-6153-24EC-0C94EDE3C290";
	setAttr -k off ".v" no;
	setAttr ".fl" 34.999999999999986;
	setAttr ".coi" 4.6240869985706512;
	setAttr ".imn" -type "string" "persp";
	setAttr ".den" -type "string" "persp_depth";
	setAttr ".man" -type "string" "persp_mask";
	setAttr ".hc" -type "string" "viewSet -p %camera";
createNode transform -s -n "top";
	rename -uid "8987629B-0D4D-FA06-6763-F3B319D278B9";
	setAttr ".v" no;
	setAttr ".t" -type "double3" 0 1000.1 0 ;
	setAttr ".r" -type "double3" -89.999999999999986 0 0 ;
createNode camera -s -n "topShape" -p "top";
	rename -uid "EF10119B-854D-3695-C366-45913D4788D0";
	setAttr -k off ".v" no;
	setAttr ".rnd" no;
	setAttr ".coi" 1000.1;
	setAttr ".ow" 30;
	setAttr ".imn" -type "string" "top";
	setAttr ".den" -type "string" "top_depth";
	setAttr ".man" -type "string" "top_mask";
	setAttr ".hc" -type "string" "viewSet -t %camera";
	setAttr ".o" yes;
createNode transform -s -n "front";
	rename -uid "94C63676-3C43-934A-6218-2B9391CE4201";
	setAttr ".v" no;
	setAttr ".t" -type "double3" 0 0 1000.1 ;
createNode camera -s -n "frontShape" -p "front";
	rename -uid "75949628-CC46-82DB-271C-ED99953DCFE3";
	setAttr -k off ".v" no;
	setAttr ".rnd" no;
	setAttr ".coi" 1000.1;
	setAttr ".ow" 30;
	setAttr ".imn" -type "string" "front";
	setAttr ".den" -type "string" "front_depth";
	setAttr ".man" -type "string" "front_mask";
	setAttr ".hc" -type "string" "viewSet -f %camera";
	setAttr ".o" yes;
createNode transform -s -n "side";
	rename -uid "6A29F601-BC4F-07FD-B483-BDB30C29115D";
	setAttr ".v" no;
	setAttr ".t" -type "double3" 1000.1 0 0 ;
	setAttr ".r" -type "double3" 0 89.999999999999986 0 ;
createNode camera -s -n "sideShape" -p "side";
	rename -uid "B331ADF9-9D46-6D5F-F543-21B43229B9EB";
	setAttr -k off ".v" no;
	setAttr ".rnd" no;
	setAttr ".coi" 1000.1;
	setAttr ".ow" 30;
	setAttr ".imn" -type "string" "side";
	setAttr ".den" -type "string" "side_depth";
	setAttr ".man" -type "string" "side_mask";
	setAttr ".hc" -type "string" "viewSet -s %camera";
	setAttr ".o" yes;
createNode transform -n "pPlane1";
	rename -uid "BB9BD84C-4149-818A-61EB-6CAF9C9FBB68";
	setAttr ".v" no;
	setAttr ".t" -type "double3" 0 0 6.2568167932707492 ;
	setAttr ".s" -type "double3" 10 10 10 ;
createNode mesh -n "pPlaneShape1" -p "pPlane1";
	rename -uid "5BE8FA39-B447-F652-5360-BE89E54FA508";
	setAttr -k off ".v";
	setAttr ".vir" yes;
	setAttr ".vif" yes;
	setAttr ".uvst[0].uvsn" -type "string" "map1";
	setAttr ".cuvs" -type "string" "map1";
	setAttr ".dcc" -type "string" "Ambient+Diffuse";
	setAttr ".covm[0]"  0 1 1;
	setAttr ".cdvm[0]"  0 1 1;
createNode transform -n "pPlane2";
	rename -uid "E7A8D43A-B046-F91F-2748-7FA6952A0F9E";
	setAttr ".v" no;
	setAttr ".t" -type "double3" 0 0 -8.6051456934587538 ;
	setAttr ".s" -type "double3" 10 10 10 ;
createNode mesh -n "pPlaneShape2" -p "pPlane2";
	rename -uid "91AD5F74-E246-3DA3-4A51-469C2F6A24D5";
	setAttr -k off ".v";
	setAttr ".vir" yes;
	setAttr ".vif" yes;
	setAttr ".uvst[0].uvsn" -type "string" "map1";
	setAttr -s 121 ".uvst[0].uvsp[0:120]" -type "float2" 0 0 0.1 0 0.2 0 0.30000001
		 0 0.40000001 0 0.5 0 0.60000002 0 0.69999999 0 0.80000001 0 0.90000004 0 1 0 0 0.1
		 0.1 0.1 0.2 0.1 0.30000001 0.1 0.40000001 0.1 0.5 0.1 0.60000002 0.1 0.69999999 0.1
		 0.80000001 0.1 0.90000004 0.1 1 0.1 0 0.2 0.1 0.2 0.2 0.2 0.30000001 0.2 0.40000001
		 0.2 0.5 0.2 0.60000002 0.2 0.69999999 0.2 0.80000001 0.2 0.90000004 0.2 1 0.2 0 0.30000001
		 0.1 0.30000001 0.2 0.30000001 0.30000001 0.30000001 0.40000001 0.30000001 0.5 0.30000001
		 0.60000002 0.30000001 0.69999999 0.30000001 0.80000001 0.30000001 0.90000004 0.30000001
		 1 0.30000001 0 0.40000001 0.1 0.40000001 0.2 0.40000001 0.30000001 0.40000001 0.40000001
		 0.40000001 0.5 0.40000001 0.60000002 0.40000001 0.69999999 0.40000001 0.80000001
		 0.40000001 0.90000004 0.40000001 1 0.40000001 0 0.5 0.1 0.5 0.2 0.5 0.30000001 0.5
		 0.40000001 0.5 0.5 0.5 0.60000002 0.5 0.69999999 0.5 0.80000001 0.5 0.90000004 0.5
		 1 0.5 0 0.60000002 0.1 0.60000002 0.2 0.60000002 0.30000001 0.60000002 0.40000001
		 0.60000002 0.5 0.60000002 0.60000002 0.60000002 0.69999999 0.60000002 0.80000001
		 0.60000002 0.90000004 0.60000002 1 0.60000002 0 0.69999999 0.1 0.69999999 0.2 0.69999999
		 0.30000001 0.69999999 0.40000001 0.69999999 0.5 0.69999999 0.60000002 0.69999999
		 0.69999999 0.69999999 0.80000001 0.69999999 0.90000004 0.69999999 1 0.69999999 0
		 0.80000001 0.1 0.80000001 0.2 0.80000001 0.30000001 0.80000001 0.40000001 0.80000001
		 0.5 0.80000001 0.60000002 0.80000001 0.69999999 0.80000001 0.80000001 0.80000001
		 0.90000004 0.80000001 1 0.80000001 0 0.90000004 0.1 0.90000004 0.2 0.90000004 0.30000001
		 0.90000004 0.40000001 0.90000004 0.5 0.90000004 0.60000002 0.90000004 0.69999999
		 0.90000004 0.80000001 0.90000004 0.90000004 0.90000004 1 0.90000004 0 1 0.1 1 0.2
		 1 0.30000001 1 0.40000001 1 0.5 1 0.60000002 1 0.69999999 1 0.80000001 1 0.90000004
		 1 1 1;
	setAttr ".cuvs" -type "string" "map1";
	setAttr ".dcc" -type "string" "Ambient+Diffuse";
	setAttr ".covm[0]"  0 1 1;
	setAttr ".cdvm[0]"  0 1 1;
	setAttr -s 121 ".vt[0:120]"  -0.5 -1.110223e-16 0.5 -0.40000001 -1.110223e-16 0.5
		 -0.30000001 -1.110223e-16 0.5 -0.19999999 -1.110223e-16 0.5 -0.099999994 -1.110223e-16 0.5
		 0 -1.110223e-16 0.5 0.10000002 -1.110223e-16 0.5 0.19999999 -1.110223e-16 0.5 0.30000001 -1.110223e-16 0.5
		 0.40000004 -1.110223e-16 0.5 0.5 -1.110223e-16 0.5 -0.5 -8.8817843e-17 0.40000001
		 -0.40000001 -8.8817843e-17 0.40000001 -0.30000001 -8.8817843e-17 0.40000001 -0.19999999 -8.8817843e-17 0.40000001
		 -0.099999994 -8.8817843e-17 0.40000001 0 -8.8817843e-17 0.40000001 0.10000002 -8.8817843e-17 0.40000001
		 0.19999999 -8.8817843e-17 0.40000001 0.30000001 -8.8817843e-17 0.40000001 0.40000004 -8.8817843e-17 0.40000001
		 0.5 -8.8817843e-17 0.40000001 -0.5 -6.6613384e-17 0.30000001 -0.40000001 -6.6613384e-17 0.30000001
		 -0.30000001 -6.6613384e-17 0.30000001 -0.19999999 -6.6613384e-17 0.30000001 -0.099999994 -6.6613384e-17 0.30000001
		 0 -6.6613384e-17 0.30000001 0.10000002 -6.6613384e-17 0.30000001 0.19999999 -6.6613384e-17 0.30000001
		 0.30000001 -6.6613384e-17 0.30000001 0.40000004 -6.6613384e-17 0.30000001 0.5 -6.6613384e-17 0.30000001
		 -0.5 -4.4408918e-17 0.19999999 -0.40000001 -4.4408918e-17 0.19999999 -0.30000001 -4.4408918e-17 0.19999999
		 -0.19999999 -4.4408918e-17 0.19999999 -0.099999994 -4.4408918e-17 0.19999999 0 -4.4408918e-17 0.19999999
		 0.10000002 -4.4408918e-17 0.19999999 0.19999999 -4.4408918e-17 0.19999999 0.30000001 -4.4408918e-17 0.19999999
		 0.40000004 -4.4408918e-17 0.19999999 0.5 -4.4408918e-17 0.19999999 -0.5 -2.2204459e-17 0.099999994
		 -0.40000001 -2.2204459e-17 0.099999994 -0.30000001 -2.2204459e-17 0.099999994 -0.19999999 -2.2204459e-17 0.099999994
		 -0.099999994 -2.2204459e-17 0.099999994 0 -2.2204459e-17 0.099999994 0.10000002 -2.2204459e-17 0.099999994
		 0.19999999 -2.2204459e-17 0.099999994 0.30000001 -2.2204459e-17 0.099999994 0.40000004 -2.2204459e-17 0.099999994
		 0.5 -2.2204459e-17 0.099999994 -0.5 0 0 -0.40000001 0 0 -0.30000001 0 0 -0.19999999 0 0
		 -0.099999994 0 0 0 0 0 0.10000002 0 0 0.19999999 0 0 0.30000001 0 0 0.40000004 0 0
		 0.5 0 0 -0.5 2.2204466e-17 -0.10000002 -0.40000001 2.2204466e-17 -0.10000002 -0.30000001 2.2204466e-17 -0.10000002
		 -0.19999999 2.2204466e-17 -0.10000002 -0.099999994 2.2204466e-17 -0.10000002 0 2.2204466e-17 -0.10000002
		 0.10000002 2.2204466e-17 -0.10000002 0.19999999 2.2204466e-17 -0.10000002 0.30000001 2.2204466e-17 -0.10000002
		 0.40000004 2.2204466e-17 -0.10000002 0.5 2.2204466e-17 -0.10000002 -0.5 4.4408918e-17 -0.19999999
		 -0.40000001 4.4408918e-17 -0.19999999 -0.30000001 4.4408918e-17 -0.19999999 -0.19999999 4.4408918e-17 -0.19999999
		 -0.099999994 4.4408918e-17 -0.19999999 0 4.4408918e-17 -0.19999999 0.10000002 4.4408918e-17 -0.19999999
		 0.19999999 4.4408918e-17 -0.19999999 0.30000001 4.4408918e-17 -0.19999999 0.40000004 4.4408918e-17 -0.19999999
		 0.5 4.4408918e-17 -0.19999999 -0.5 6.6613384e-17 -0.30000001 -0.40000001 6.6613384e-17 -0.30000001
		 -0.30000001 6.6613384e-17 -0.30000001 -0.19999999 6.6613384e-17 -0.30000001 -0.099999994 6.6613384e-17 -0.30000001
		 0 6.6613384e-17 -0.30000001 0.10000002 6.6613384e-17 -0.30000001 0.19999999 6.6613384e-17 -0.30000001
		 0.30000001 6.6613384e-17 -0.30000001 0.40000004 6.6613384e-17 -0.30000001 0.5 6.6613384e-17 -0.30000001
		 -0.5 8.881785e-17 -0.40000004 -0.40000001 8.881785e-17 -0.40000004 -0.30000001 8.881785e-17 -0.40000004
		 -0.19999999 8.881785e-17 -0.40000004 -0.099999994 8.881785e-17 -0.40000004 0 8.881785e-17 -0.40000004
		 0.10000002 8.881785e-17 -0.40000004 0.19999999 8.881785e-17 -0.40000004 0.30000001 8.881785e-17 -0.40000004
		 0.40000004 8.881785e-17 -0.40000004 0.5 8.881785e-17 -0.40000004 -0.5 1.110223e-16 -0.5
		 -0.40000001 1.110223e-16 -0.5 -0.30000001 1.110223e-16 -0.5 -0.19999999 1.110223e-16 -0.5
		 -0.099999994 1.110223e-16 -0.5 0 1.110223e-16 -0.5 0.10000002 1.110223e-16 -0.5 0.19999999 1.110223e-16 -0.5
		 0.30000001 1.110223e-16 -0.5 0.40000004 1.110223e-16 -0.5 0.5 1.110223e-16 -0.5;
	setAttr -s 220 ".ed";
	setAttr ".ed[0:165]"  0 1 0 0 11 0 1 2 0 1 12 1 2 3 0 2 13 1 3 4 0 3 14 1
		 4 5 0 4 15 1 5 6 0 5 16 1 6 7 0 6 17 1 7 8 0 7 18 1 8 9 0 8 19 1 9 10 0 9 20 1 10 21 0
		 11 12 1 11 22 0 12 13 1 12 23 1 13 14 1 13 24 1 14 15 1 14 25 1 15 16 1 15 26 1 16 17 1
		 16 27 1 17 18 1 17 28 1 18 19 1 18 29 1 19 20 1 19 30 1 20 21 1 20 31 1 21 32 0 22 23 1
		 22 33 0 23 24 1 23 34 1 24 25 1 24 35 1 25 26 1 25 36 1 26 27 1 26 37 1 27 28 1 27 38 1
		 28 29 1 28 39 1 29 30 1 29 40 1 30 31 1 30 41 1 31 32 1 31 42 1 32 43 0 33 34 1 33 44 0
		 34 35 1 34 45 1 35 36 1 35 46 1 36 37 1 36 47 1 37 38 1 37 48 1 38 39 1 38 49 1 39 40 1
		 39 50 1 40 41 1 40 51 1 41 42 1 41 52 1 42 43 1 42 53 1 43 54 0 44 45 1 44 55 0 45 46 1
		 45 56 1 46 47 1 46 57 1 47 48 1 47 58 1 48 49 1 48 59 1 49 50 1 49 60 1 50 51 1 50 61 1
		 51 52 1 51 62 1 52 53 1 52 63 1 53 54 1 53 64 1 54 65 0 55 56 1 55 66 0 56 57 1 56 67 1
		 57 58 1 57 68 1 58 59 1 58 69 1 59 60 1 59 70 1 60 61 1 60 71 1 61 62 1 61 72 1 62 63 1
		 62 73 1 63 64 1 63 74 1 64 65 1 64 75 1 65 76 0 66 67 1 66 77 0 67 68 1 67 78 1 68 69 1
		 68 79 1 69 70 1 69 80 1 70 71 1 70 81 1 71 72 1 71 82 1 72 73 1 72 83 1 73 74 1 73 84 1
		 74 75 1 74 85 1 75 76 1 75 86 1 76 87 0 77 78 1 77 88 0 78 79 1 78 89 1 79 80 1 79 90 1
		 80 81 1 80 91 1 81 82 1 81 92 1 82 83 1 82 93 1 83 84 1 83 94 1 84 85 1 84 95 1 85 86 1
		 85 96 1 86 87 1;
	setAttr ".ed[166:219]" 86 97 1 87 98 0 88 89 1 88 99 0 89 90 1 89 100 1 90 91 1
		 90 101 1 91 92 1 91 102 1 92 93 1 92 103 1 93 94 1 93 104 1 94 95 1 94 105 1 95 96 1
		 95 106 1 96 97 1 96 107 1 97 98 1 97 108 1 98 109 0 99 100 1 99 110 0 100 101 1 100 111 1
		 101 102 1 101 112 1 102 103 1 102 113 1 103 104 1 103 114 1 104 105 1 104 115 1 105 106 1
		 105 116 1 106 107 1 106 117 1 107 108 1 107 118 1 108 109 1 108 119 1 109 120 0 110 111 0
		 111 112 0 112 113 0 113 114 0 114 115 0 115 116 0 116 117 0 117 118 0 118 119 0 119 120 0;
	setAttr -s 100 -ch 400 ".fc[0:99]" -type "polyFaces" 
		f 4 0 3 -22 -2
		mu 0 4 0 1 12 11
		f 4 2 5 -24 -4
		mu 0 4 1 2 13 12
		f 4 4 7 -26 -6
		mu 0 4 2 3 14 13
		f 4 6 9 -28 -8
		mu 0 4 3 4 15 14
		f 4 8 11 -30 -10
		mu 0 4 4 5 16 15
		f 4 10 13 -32 -12
		mu 0 4 5 6 17 16
		f 4 12 15 -34 -14
		mu 0 4 6 7 18 17
		f 4 14 17 -36 -16
		mu 0 4 7 8 19 18
		f 4 16 19 -38 -18
		mu 0 4 8 9 20 19
		f 4 18 20 -40 -20
		mu 0 4 9 10 21 20
		f 4 21 24 -43 -23
		mu 0 4 11 12 23 22
		f 4 23 26 -45 -25
		mu 0 4 12 13 24 23
		f 4 25 28 -47 -27
		mu 0 4 13 14 25 24
		f 4 27 30 -49 -29
		mu 0 4 14 15 26 25
		f 4 29 32 -51 -31
		mu 0 4 15 16 27 26
		f 4 31 34 -53 -33
		mu 0 4 16 17 28 27
		f 4 33 36 -55 -35
		mu 0 4 17 18 29 28
		f 4 35 38 -57 -37
		mu 0 4 18 19 30 29
		f 4 37 40 -59 -39
		mu 0 4 19 20 31 30
		f 4 39 41 -61 -41
		mu 0 4 20 21 32 31
		f 4 42 45 -64 -44
		mu 0 4 22 23 34 33
		f 4 44 47 -66 -46
		mu 0 4 23 24 35 34
		f 4 46 49 -68 -48
		mu 0 4 24 25 36 35
		f 4 48 51 -70 -50
		mu 0 4 25 26 37 36
		f 4 50 53 -72 -52
		mu 0 4 26 27 38 37
		f 4 52 55 -74 -54
		mu 0 4 27 28 39 38
		f 4 54 57 -76 -56
		mu 0 4 28 29 40 39
		f 4 56 59 -78 -58
		mu 0 4 29 30 41 40
		f 4 58 61 -80 -60
		mu 0 4 30 31 42 41
		f 4 60 62 -82 -62
		mu 0 4 31 32 43 42
		f 4 63 66 -85 -65
		mu 0 4 33 34 45 44
		f 4 65 68 -87 -67
		mu 0 4 34 35 46 45
		f 4 67 70 -89 -69
		mu 0 4 35 36 47 46
		f 4 69 72 -91 -71
		mu 0 4 36 37 48 47
		f 4 71 74 -93 -73
		mu 0 4 37 38 49 48
		f 4 73 76 -95 -75
		mu 0 4 38 39 50 49
		f 4 75 78 -97 -77
		mu 0 4 39 40 51 50
		f 4 77 80 -99 -79
		mu 0 4 40 41 52 51
		f 4 79 82 -101 -81
		mu 0 4 41 42 53 52
		f 4 81 83 -103 -83
		mu 0 4 42 43 54 53
		f 4 84 87 -106 -86
		mu 0 4 44 45 56 55
		f 4 86 89 -108 -88
		mu 0 4 45 46 57 56
		f 4 88 91 -110 -90
		mu 0 4 46 47 58 57
		f 4 90 93 -112 -92
		mu 0 4 47 48 59 58
		f 4 92 95 -114 -94
		mu 0 4 48 49 60 59
		f 4 94 97 -116 -96
		mu 0 4 49 50 61 60
		f 4 96 99 -118 -98
		mu 0 4 50 51 62 61
		f 4 98 101 -120 -100
		mu 0 4 51 52 63 62
		f 4 100 103 -122 -102
		mu 0 4 52 53 64 63
		f 4 102 104 -124 -104
		mu 0 4 53 54 65 64
		f 4 105 108 -127 -107
		mu 0 4 55 56 67 66
		f 4 107 110 -129 -109
		mu 0 4 56 57 68 67
		f 4 109 112 -131 -111
		mu 0 4 57 58 69 68
		f 4 111 114 -133 -113
		mu 0 4 58 59 70 69
		f 4 113 116 -135 -115
		mu 0 4 59 60 71 70
		f 4 115 118 -137 -117
		mu 0 4 60 61 72 71
		f 4 117 120 -139 -119
		mu 0 4 61 62 73 72
		f 4 119 122 -141 -121
		mu 0 4 62 63 74 73
		f 4 121 124 -143 -123
		mu 0 4 63 64 75 74
		f 4 123 125 -145 -125
		mu 0 4 64 65 76 75
		f 4 126 129 -148 -128
		mu 0 4 66 67 78 77
		f 4 128 131 -150 -130
		mu 0 4 67 68 79 78
		f 4 130 133 -152 -132
		mu 0 4 68 69 80 79
		f 4 132 135 -154 -134
		mu 0 4 69 70 81 80
		f 4 134 137 -156 -136
		mu 0 4 70 71 82 81
		f 4 136 139 -158 -138
		mu 0 4 71 72 83 82
		f 4 138 141 -160 -140
		mu 0 4 72 73 84 83
		f 4 140 143 -162 -142
		mu 0 4 73 74 85 84
		f 4 142 145 -164 -144
		mu 0 4 74 75 86 85
		f 4 144 146 -166 -146
		mu 0 4 75 76 87 86
		f 4 147 150 -169 -149
		mu 0 4 77 78 89 88
		f 4 149 152 -171 -151
		mu 0 4 78 79 90 89
		f 4 151 154 -173 -153
		mu 0 4 79 80 91 90
		f 4 153 156 -175 -155
		mu 0 4 80 81 92 91
		f 4 155 158 -177 -157
		mu 0 4 81 82 93 92
		f 4 157 160 -179 -159
		mu 0 4 82 83 94 93
		f 4 159 162 -181 -161
		mu 0 4 83 84 95 94
		f 4 161 164 -183 -163
		mu 0 4 84 85 96 95
		f 4 163 166 -185 -165
		mu 0 4 85 86 97 96
		f 4 165 167 -187 -167
		mu 0 4 86 87 98 97
		f 4 168 171 -190 -170
		mu 0 4 88 89 100 99
		f 4 170 173 -192 -172
		mu 0 4 89 90 101 100
		f 4 172 175 -194 -174
		mu 0 4 90 91 102 101
		f 4 174 177 -196 -176
		mu 0 4 91 92 103 102
		f 4 176 179 -198 -178
		mu 0 4 92 93 104 103
		f 4 178 181 -200 -180
		mu 0 4 93 94 105 104
		f 4 180 183 -202 -182
		mu 0 4 94 95 106 105
		f 4 182 185 -204 -184
		mu 0 4 95 96 107 106
		f 4 184 187 -206 -186
		mu 0 4 96 97 108 107
		f 4 186 188 -208 -188
		mu 0 4 97 98 109 108
		f 4 189 192 -211 -191
		mu 0 4 99 100 111 110
		f 4 191 194 -212 -193
		mu 0 4 100 101 112 111
		f 4 193 196 -213 -195
		mu 0 4 101 102 113 112
		f 4 195 198 -214 -197
		mu 0 4 102 103 114 113
		f 4 197 200 -215 -199
		mu 0 4 103 104 115 114
		f 4 199 202 -216 -201
		mu 0 4 104 105 116 115
		f 4 201 204 -217 -203
		mu 0 4 105 106 117 116
		f 4 203 206 -218 -205
		mu 0 4 106 107 118 117
		f 4 205 208 -219 -207
		mu 0 4 107 108 119 118
		f 4 207 209 -220 -209
		mu 0 4 108 109 120 119;
	setAttr ".cd" -type "dataPolyComponent" Index_Data Edge 0 ;
	setAttr ".cvd" -type "dataPolyComponent" Index_Data Vertex 0 ;
	setAttr ".pd[0]" -type "dataPolyComponent" Index_Data UV 0 ;
	setAttr ".hfd" -type "dataPolyComponent" Index_Data Face 0 ;
createNode transform -n "pSphere1";
	rename -uid "C0E67EC4-014B-898B-56DE-3B95014D0EEA";
	setAttr ".v" no;
createNode mesh -n "pSphereShape1" -p "pSphere1";
	rename -uid "6B8A428E-2349-CBE6-B950-068FAD4E77A5";
	setAttr -k off ".v";
	setAttr ".vir" yes;
	setAttr ".vif" yes;
	setAttr ".uvst[0].uvsn" -type "string" "map1";
	setAttr ".cuvs" -type "string" "map1";
	setAttr ".dcc" -type "string" "Ambient+Diffuse";
	setAttr ".covm[0]"  0 1 1;
	setAttr ".cdvm[0]"  0 1 1;
	setAttr ".dr" 3;
	setAttr ".dsm" 2;
createNode transform -n "pPlane3";
	rename -uid "C6360C64-634C-F49D-33C7-5C992BCEB2D8";
	addAttr -ci true -sn "resolution" -ln "resolution" -at "long";
	setAttr ".t" -type "double3" 0 0.022542482637042338 -2.1275255597388432 ;
	setAttr ".s" -type "double3" 1.8016046010567404 1.8016046010567404 1.8016046010567404 ;
	setAttr -k on ".resolution";
createNode mesh -n "pPlaneShape3" -p "pPlane3";
	rename -uid "16541B75-CA4B-2740-844B-9897DFFA7FC1";
	setAttr -k off ".v";
	setAttr ".vir" yes;
	setAttr ".vif" yes;
	setAttr ".uvst[0].uvsn" -type "string" "map1";
	setAttr ".cuvs" -type "string" "map1";
	setAttr ".dcc" -type "string" "Ambient+Diffuse";
	setAttr ".covm[0]"  0 1 1;
	setAttr ".cdvm[0]"  0 1 1;
createNode transform -n "clapper1";
	rename -uid "5401049D-004B-7C92-9BF8-3D89C93C93D1";
	setAttr -l on -k off ".tx";
	setAttr -l on -k off ".ty";
	setAttr -l on -k off ".tz";
	setAttr -l on -k off ".rx";
	setAttr -l on -k off ".ry";
	setAttr -l on -k off ".rz";
	setAttr -l on -k off ".sx";
	setAttr -l on -k off ".sy";
	setAttr -l on -k off ".sz";
createNode clapperShape -s -n "defaultClapper" -p "clapper1";
	rename -uid "2A30CD2B-1649-17D7-899D-FF8162781DF3";
	setAttr -k off ".v";
	setAttr ".dat" -type "string" "25 Nov 17";
	setAttr ".usr" -type "string" "julian";
	setAttr ".shw" -type "string" "beetles";
	setAttr ".ctr" -type "string" "reactiondiffusion";
	setAttr ".tas" -type "string" "dev";
	setAttr ".ver" -type "string" "001";
	setAttr ".rev" -type "string" "0039";
	setAttr ".mmo" -type "string" "";
	setAttr -s 3 ".cinf";
	setAttr ".cinf[0]" -type "string" "`clapper.focalLength`";
	setAttr ".cinf[1]" -type "string" "`clapper.cameraName`";
	setAttr ".cinf[2]" -type "string" "`clapper.resolution`";
	setAttr ".ftp" -type "string" "<show>__<container>__<task>__<version>__<revision>__<memo>";
	setAttr ".fn" -type "string" "beetles__reactiondiffusion__dev__001__0039__";
	setAttr ".scd" -type "string" "scenes/<task>/<user>";
	setAttr ".dst" yes;
	setAttr ".plm" yes;
	setAttr ".grd" yes;
	setAttr ".man" yes;
	setAttr ".dap" 3;
	setAttr ".prn" -type "long2" 0 400 ;
	setAttr ".pbd" -type "string" "playblasts/<user>";
	setAttr ".sap" yes;
	setAttr ".vwr" -type "string" "rv";
	setAttr ".pql" 100;
	setAttr ".rno" 11500;
	setAttr ".shd" 400;
	setAttr ".res" -type "short2" 1280 720 ;
	setAttr ".xmg" 10;
	setAttr ".wsp" 2;
	setAttr ".bft" 5;
	setAttr ".sft" 5;
	setAttr ".fc" -type "float3" 1 1 1 ;
	setAttr ".ouc" -type "float3" 0.15000001 0.1 0.5 ;
	setAttr ".dsl" yes;
	setAttr ".scb" -type "string" "clapper.slateCB";
	setAttr ".sfc" -type "float3" 0.80000001 0.80000001 0.80000001 ;
	setAttr ".sbc" -type "float3" 0.090000004 0.090000004 0.090000004 ;
	setAttr -s 5 ".wch";
	setAttr ".wch[0].wvs" -type "doubleArray" 40 0.091145042640000007 0.085355171739999999
		 0.1360575349 0.084248940820000007 0.096219231789999998 0.074314676199999999 0.096013281150000004
		 0.070273756039999996 0.091715349909999994 0.096892180539999997 0.089925426909999995
		 0.1169779505 0.090281381800000005 0.12132173509999999 0.1068106561 0.13071120880000001
		 0.13707735009999999 0.13361556660000001 0.13170821390000001 0.1381786528 0.079387281520000005
		 0.1242149082 0.1155736123 0.13732761639999999 0.1137548191 0.13595216730000001 0.1047519739
		 0.1007637431 0.074416854290000001 0.082969671940000003 0.073736474600000004 0.081261823019999999
		 0.1030888113 0.1374333449 0.099141856929999994 0.088568555899999998 0.138474879 0.099539433349999998
		 0.084727548560000004 0.1050145452 ;
	setAttr ".wch[1].wvs" -type "doubleArray" 40 0.02463213908 0.031805364799999999
		 0.039631523420000002 0.04060815483 0.019826749000000001 0.027408020240000001 0.035138926379999998
		 0.018729294269999999 0.017698920890000001 0.017882842829999999 0.025680098179999999
		 0.039292609079999999 0.028041817399999999 0.037882942949999998 0.026303118269999998
		 0.020716696900000001 0.02249127435 0.041598176940000002 0.029949269189999999 0.030164782389999999
		 0.023959276880000002 0.036522620360000001 0.01706146301 0.027864811539999999 0.029516150049999999
		 0.026916173840000002 0.041329216689999997 0.045355573900000001 0.024988244239999999
		 0.041692927150000003 0.037539879669999998 0.045105768769999999 0.025530136759999999
		 0.02776769686 0.026827830590000001 0.025228222889999999 0.019597294309999999 0.023543848230000001
		 0.024464548999999999 0.044779312350000003 ;
	setAttr ".wch[2].wvs" -type "doubleArray" 40 0.035049999999999998 0.023650000000000001
		 0.030450000000000001 0.050999999999999997 0.027550000000000002 0.054300000000000001
		 0.058200000000000002 0.051400000000000001 0.053699999999999998 0.059499999999999997
		 0.046100000000000002 0.052350000000000001 0.04845 0.038850000000000003 0.037350000000000001
		 0.039 0.051999999999999998 0.031350000000000003 0.049599999999999998 0.020400000000000001
		 0.047849999999999997 0.024750000000000001 0.039600000000000003 0.050099999999999999
		 0.027699999999999999 0.040550000000000003 0.029250000000000002 0.055050000000000002
		 0.031550000000000002 0.046199999999999998 0.04895 0.058400000000000001 0.043799999999999999
		 0.045999999999999999 0.0286 0.034250000000000003 0.049399999999999999 0.031800000000000002
		 0.050650000000000001 0.054899999999999997 ;
	setAttr ".wch[3].wvs" -type "doubleArray" 40 0.20000000000000001 0.20512820509999999
		 0.2102564103 0.21538461540000001 0.22051282050000001 0.22564102559999999 0.2307692308
		 0.23589743590000001 0.24102564100000001 0.2461538462 0.25128205129999998 0.25641025639999998
		 0.26153846149999999 0.2666666667 0.2717948718 0.27692307690000001 0.28205128210000002
		 0.28717948720000003 0.29230769229999998 0.29743589739999998 0.3025641026 0.3076923077
		 0.31282051280000001 0.31794871790000001 0.32307692310000002 0.32820512819999997 0.33333333329999998
		 0.33846153849999999 0.3435897436 0.3487179487 0.35384615380000001 0.35897435900000002
		 0.36410256410000003 0.36923076919999998 0.37435897439999999 0.37948717949999999 0.3846153846
		 0.3897435897 0.39487179490000002 0.40000000000000002 ;
	setAttr ".wch[4].wvs" -type "doubleArray" 40 0.10000000000000001 0.1025641026
		 0.1051282051 0.1076923077 0.1102564103 0.11282051279999999 0.1153846154 0.1179487179
		 0.12051282050000001 0.1230769231 0.12564102560000001 0.12820512819999999 0.1307692308
		 0.1333333333 0.1358974359 0.13846153850000001 0.14102564100000001 0.14358974360000001
		 0.14615384619999999 0.14871794869999999 0.1512820513 0.1538461538 0.1564102564 0.15897435900000001
		 0.16153846150000001 0.16410256409999999 0.16666666669999999 0.16923076919999999 0.1717948718
		 0.17435897440000001 0.1769230769 0.17948717950000001 0.18205128209999999 0.18461538459999999
		 0.18717948719999999 0.18974358969999999 0.1923076923 0.19487179490000001 0.1974358974
		 0.20000000000000001 ;
	setAttr ".wnr" 40;
	setAttr -s 2 ".wsn";
	setAttr ".wsn[0]" -type "string" "// Playblast\n// The first line of the script will be used for the tab label, up to a maximum of 24 characters.\n\n// Available Variables:\n// $name will provide the original revision name as a string. The MEL procedure name may be a sanitized version\n// of $name as some characters are illegal.\n// $revision will provide the revision number as a string, example \"0034\".\n// $clapper will provide the name of the clapper node, example \"defaultClapper\".\n\n// The commands below demonstrate playblasting:\n\nsetAttr ($clapper+\".playblastOffscreen\") 0;\nsetAttr ($clapper+\".saveAfterPlayblast\") 1;\nsetAttr ($clapper+\".launchViewer\") 0;\nAEClapperDoPlayblast($clapper);\n";
	setAttr ".wsn[1]" -type "string" "// Cache All Particles\n// The first line of the script will be used for the tab label, up to a maximum of 24 characters.\n\n// Available Variables:\n// $name will provide the original revision name as a string. The MEL procedure name may be a sanitized version\n// of $name as some characters are illegal.\n// $revision will provide the revision number as a string, example \"0034\".\n// $clapper will provide the name of the clapper node, example \"defaultClapper\".\n\n// The commands below demonstrate caching all particles and saving the scene with the name of the revision:\n\nfloat $start = AEclapperCalcRunupTime($clapper);\nfloat $end = AEclapperCalcEndTime($clapper);\ncurrentTime  $start;\nprint(\"Caching particles for revision:\"+$revision+\"\\n\");\ndynExport -mnf $start -mxf ($end+1)  -f \"pdc\" -p $name -all 1;\nfile -rename $name;\nfile -save;\n";
	setAttr ".wrs" -type "string" "1:3";
	setAttr ".nkcb" -type "string" "clapperRenderCB.mayaSoftwareBasic";
	setAttr ".nkllf" -type "string" "sourceimages/mpc_logo.png";
createNode lightLinker -s -n "lightLinker1";
	rename -uid "BE12DF6B-4944-3E35-DD17-00993A9AFC90";
	setAttr -s 5 ".lnk";
	setAttr -s 5 ".slnk";
createNode displayLayerManager -n "layerManager";
	rename -uid "2B324B77-F24E-D332-326A-C884C38B4B01";
createNode displayLayer -n "defaultLayer";
	rename -uid "AD4D61FF-6443-4597-BDFA-4BAC455902D0";
createNode renderLayerManager -n "renderLayerManager";
	rename -uid "DFC16039-4345-E99A-6BCA-07A0A300FED3";
createNode renderLayer -n "defaultRenderLayer";
	rename -uid "BDDCC254-4E46-4A41-8955-3490F452B73F";
	setAttr ".g" yes;
createNode shapeEditorManager -n "shapeEditorManager";
	rename -uid "872E45D5-B341-F73E-C1D5-F1AA66001CE0";
createNode poseInterpolatorManager -n "poseInterpolatorManager";
	rename -uid "F82A446C-E346-F1C7-23C0-4CADBA295A93";
createNode grayScottShader -n "grayScottShader1";
	rename -uid "CF976711-8644-E7B0-4F60-4E94B98532CA";
createNode place2dTexture -n "place2dTexture1";
	rename -uid "434B4B43-E343-4AED-BC53-6981B0DBB1D4";
createNode grayScottNode -n "grayScottNode1";
	rename -uid "79BF19AA-244C-F085-4CC4-4F8ECEB7B29D";
	setAttr ".kt" -type "float3" 0.07 0.18000001 0.07 ;
	setAttr ".km" -type "float3" 0.18000001 0 0.18000001 ;
	setAttr -l on ".km1";
	setAttr ".kb" -type "float3" 0.07 0.18000001 0.07 ;
	setAttr ".ksr" 32;
	setAttr ".ksan" 45;
	setAttr ".feed" 0.035138927400112152;
	setAttr ".kill" 0.05820000171661377;
	setAttr ".da" 0.23076923191547394;
	setAttr ".db" 0.11538461595773697;
	setAttr ".it" 24;
	setAttr ".st" 1;
	setAttr ".si" -type "string" "/Users/julian/Documents/maya/projects/reactiondiffusion//sourceimages/turing.jpg";
createNode script -n "uiConfigurationScriptNode";
	rename -uid "8F5A7251-F544-E007-DB6C-A694CC762245";
	setAttr ".b" -type "string" (
		"// Maya Mel UI Configuration File.\n//\n//  This script is machine generated.  Edit at your own risk.\n//\n//\n\nglobal string $gMainPane;\nif (`paneLayout -exists $gMainPane`) {\n\n\tglobal int $gUseScenePanelConfig;\n\tint    $useSceneConfig = $gUseScenePanelConfig;\n\tint    $menusOkayInPanels = `optionVar -q allowMenusInPanels`;\tint    $nVisPanes = `paneLayout -q -nvp $gMainPane`;\n\tint    $nPanes = 0;\n\tstring $editorName;\n\tstring $panelName;\n\tstring $itemFilterName;\n\tstring $panelConfig;\n\n\t//\n\t//  get current state of the UI\n\t//\n\tsceneUIReplacement -update $gMainPane;\n\n\t$panelName = `sceneUIReplacement -getNextPanel \"modelPanel\" (localizedPanelLabel(\"Top View\")) `;\n\tif (\"\" != $panelName) {\n\t\t$label = `panel -q -label $panelName`;\n\t\tmodelPanel -edit -l (localizedPanelLabel(\"Top View\")) -mbv $menusOkayInPanels  $panelName;\n\t\t$editorName = $panelName;\n        modelEditor -e \n            -camera \"top\" \n            -useInteractiveMode 0\n            -displayLights \"default\" \n            -displayAppearance \"smoothShaded\" \n            -activeOnly 0\n"
		+ "            -ignorePanZoom 0\n            -wireframeOnShaded 0\n            -headsUpDisplay 1\n            -holdOuts 1\n            -selectionHiliteDisplay 1\n            -useDefaultMaterial 0\n            -bufferMode \"double\" \n            -twoSidedLighting 0\n            -backfaceCulling 0\n            -xray 0\n            -jointXray 0\n            -activeComponentsXray 0\n            -displayTextures 0\n            -smoothWireframe 0\n            -lineWidth 1\n            -textureAnisotropic 0\n            -textureHilight 1\n            -textureSampling 2\n            -textureDisplay \"modulate\" \n            -textureMaxSize 16384\n            -fogging 0\n            -fogSource \"fragment\" \n            -fogMode \"linear\" \n            -fogStart 0\n            -fogEnd 100\n            -fogDensity 0.1\n            -fogColor 0.5 0.5 0.5 1 \n            -depthOfFieldPreview 1\n            -maxConstantTransparency 1\n            -rendererName \"vp2Renderer\" \n            -objectFilterShowInHUD 1\n            -isFiltered 0\n            -colorResolution 256 256 \n"
		+ "            -bumpResolution 512 512 \n            -textureCompression 0\n            -transparencyAlgorithm \"frontAndBackCull\" \n            -transpInShadows 0\n            -cullingOverride \"none\" \n            -lowQualityLighting 0\n            -maximumNumHardwareLights 1\n            -occlusionCulling 0\n            -shadingModel 0\n            -useBaseRenderer 0\n            -useReducedRenderer 0\n            -smallObjectCulling 0\n            -smallObjectThreshold -1 \n            -interactiveDisableShadows 0\n            -interactiveBackFaceCull 0\n            -sortTransparent 1\n            -nurbsCurves 1\n            -nurbsSurfaces 1\n            -polymeshes 1\n            -subdivSurfaces 1\n            -planes 1\n            -lights 1\n            -cameras 1\n            -controlVertices 1\n            -hulls 1\n            -grid 1\n            -imagePlane 1\n            -joints 1\n            -ikHandles 1\n            -deformers 1\n            -dynamics 1\n            -particleInstancers 1\n            -fluids 1\n            -hairSystems 1\n"
		+ "            -follicles 1\n            -nCloths 1\n            -nParticles 1\n            -nRigids 1\n            -dynamicConstraints 1\n            -locators 1\n            -manipulators 1\n            -pluginShapes 1\n            -dimensions 1\n            -handles 1\n            -pivots 1\n            -textures 1\n            -strokes 1\n            -motionTrails 1\n            -clipGhosts 1\n            -greasePencils 1\n            -shadows 0\n            -captureSequenceNumber -1\n            -width 1\n            -height 1\n            -sceneRenderFilter 0\n            $editorName;\n        modelEditor -e -viewSelected 0 $editorName;\n\t\tif (!$useSceneConfig) {\n\t\t\tpanel -e -l $label $panelName;\n\t\t}\n\t}\n\n\n\t$panelName = `sceneUIReplacement -getNextPanel \"modelPanel\" (localizedPanelLabel(\"Side View\")) `;\n\tif (\"\" != $panelName) {\n\t\t$label = `panel -q -label $panelName`;\n\t\tmodelPanel -edit -l (localizedPanelLabel(\"Side View\")) -mbv $menusOkayInPanels  $panelName;\n\t\t$editorName = $panelName;\n        modelEditor -e \n            -camera \"side\" \n"
		+ "            -useInteractiveMode 0\n            -displayLights \"default\" \n            -displayAppearance \"smoothShaded\" \n            -activeOnly 0\n            -ignorePanZoom 0\n            -wireframeOnShaded 0\n            -headsUpDisplay 1\n            -holdOuts 1\n            -selectionHiliteDisplay 1\n            -useDefaultMaterial 0\n            -bufferMode \"double\" \n            -twoSidedLighting 0\n            -backfaceCulling 0\n            -xray 0\n            -jointXray 0\n            -activeComponentsXray 0\n            -displayTextures 0\n            -smoothWireframe 0\n            -lineWidth 1\n            -textureAnisotropic 0\n            -textureHilight 1\n            -textureSampling 2\n            -textureDisplay \"modulate\" \n            -textureMaxSize 16384\n            -fogging 0\n            -fogSource \"fragment\" \n            -fogMode \"linear\" \n            -fogStart 0\n            -fogEnd 100\n            -fogDensity 0.1\n            -fogColor 0.5 0.5 0.5 1 \n            -depthOfFieldPreview 1\n            -maxConstantTransparency 1\n"
		+ "            -rendererName \"vp2Renderer\" \n            -objectFilterShowInHUD 1\n            -isFiltered 0\n            -colorResolution 256 256 \n            -bumpResolution 512 512 \n            -textureCompression 0\n            -transparencyAlgorithm \"frontAndBackCull\" \n            -transpInShadows 0\n            -cullingOverride \"none\" \n            -lowQualityLighting 0\n            -maximumNumHardwareLights 1\n            -occlusionCulling 0\n            -shadingModel 0\n            -useBaseRenderer 0\n            -useReducedRenderer 0\n            -smallObjectCulling 0\n            -smallObjectThreshold -1 \n            -interactiveDisableShadows 0\n            -interactiveBackFaceCull 0\n            -sortTransparent 1\n            -nurbsCurves 1\n            -nurbsSurfaces 1\n            -polymeshes 1\n            -subdivSurfaces 1\n            -planes 1\n            -lights 1\n            -cameras 1\n            -controlVertices 1\n            -hulls 1\n            -grid 1\n            -imagePlane 1\n            -joints 1\n            -ikHandles 1\n"
		+ "            -deformers 1\n            -dynamics 1\n            -particleInstancers 1\n            -fluids 1\n            -hairSystems 1\n            -follicles 1\n            -nCloths 1\n            -nParticles 1\n            -nRigids 1\n            -dynamicConstraints 1\n            -locators 1\n            -manipulators 1\n            -pluginShapes 1\n            -dimensions 1\n            -handles 1\n            -pivots 1\n            -textures 1\n            -strokes 1\n            -motionTrails 1\n            -clipGhosts 1\n            -greasePencils 1\n            -shadows 0\n            -captureSequenceNumber -1\n            -width 1\n            -height 1\n            -sceneRenderFilter 0\n            $editorName;\n        modelEditor -e -viewSelected 0 $editorName;\n\t\tif (!$useSceneConfig) {\n\t\t\tpanel -e -l $label $panelName;\n\t\t}\n\t}\n\n\n\t$panelName = `sceneUIReplacement -getNextPanel \"modelPanel\" (localizedPanelLabel(\"Front View\")) `;\n\tif (\"\" != $panelName) {\n\t\t$label = `panel -q -label $panelName`;\n\t\tmodelPanel -edit -l (localizedPanelLabel(\"Front View\")) -mbv $menusOkayInPanels  $panelName;\n"
		+ "\t\t$editorName = $panelName;\n        modelEditor -e \n            -camera \"front\" \n            -useInteractiveMode 0\n            -displayLights \"default\" \n            -displayAppearance \"smoothShaded\" \n            -activeOnly 0\n            -ignorePanZoom 0\n            -wireframeOnShaded 0\n            -headsUpDisplay 1\n            -holdOuts 1\n            -selectionHiliteDisplay 1\n            -useDefaultMaterial 0\n            -bufferMode \"double\" \n            -twoSidedLighting 0\n            -backfaceCulling 0\n            -xray 0\n            -jointXray 0\n            -activeComponentsXray 0\n            -displayTextures 0\n            -smoothWireframe 0\n            -lineWidth 1\n            -textureAnisotropic 0\n            -textureHilight 1\n            -textureSampling 2\n            -textureDisplay \"modulate\" \n            -textureMaxSize 16384\n            -fogging 0\n            -fogSource \"fragment\" \n            -fogMode \"linear\" \n            -fogStart 0\n            -fogEnd 100\n            -fogDensity 0.1\n            -fogColor 0.5 0.5 0.5 1 \n"
		+ "            -depthOfFieldPreview 1\n            -maxConstantTransparency 1\n            -rendererName \"vp2Renderer\" \n            -objectFilterShowInHUD 1\n            -isFiltered 0\n            -colorResolution 256 256 \n            -bumpResolution 512 512 \n            -textureCompression 0\n            -transparencyAlgorithm \"frontAndBackCull\" \n            -transpInShadows 0\n            -cullingOverride \"none\" \n            -lowQualityLighting 0\n            -maximumNumHardwareLights 1\n            -occlusionCulling 0\n            -shadingModel 0\n            -useBaseRenderer 0\n            -useReducedRenderer 0\n            -smallObjectCulling 0\n            -smallObjectThreshold -1 \n            -interactiveDisableShadows 0\n            -interactiveBackFaceCull 0\n            -sortTransparent 1\n            -nurbsCurves 1\n            -nurbsSurfaces 1\n            -polymeshes 1\n            -subdivSurfaces 1\n            -planes 1\n            -lights 1\n            -cameras 1\n            -controlVertices 1\n            -hulls 1\n            -grid 1\n"
		+ "            -imagePlane 1\n            -joints 1\n            -ikHandles 1\n            -deformers 1\n            -dynamics 1\n            -particleInstancers 1\n            -fluids 1\n            -hairSystems 1\n            -follicles 1\n            -nCloths 1\n            -nParticles 1\n            -nRigids 1\n            -dynamicConstraints 1\n            -locators 1\n            -manipulators 1\n            -pluginShapes 1\n            -dimensions 1\n            -handles 1\n            -pivots 1\n            -textures 1\n            -strokes 1\n            -motionTrails 1\n            -clipGhosts 1\n            -greasePencils 1\n            -shadows 0\n            -captureSequenceNumber -1\n            -width 1\n            -height 1\n            -sceneRenderFilter 0\n            $editorName;\n        modelEditor -e -viewSelected 0 $editorName;\n\t\tif (!$useSceneConfig) {\n\t\t\tpanel -e -l $label $panelName;\n\t\t}\n\t}\n\n\n\t$panelName = `sceneUIReplacement -getNextPanel \"modelPanel\" (localizedPanelLabel(\"Persp View\")) `;\n\tif (\"\" != $panelName) {\n"
		+ "\t\t$label = `panel -q -label $panelName`;\n\t\tmodelPanel -edit -l (localizedPanelLabel(\"Persp View\")) -mbv $menusOkayInPanels  $panelName;\n\t\t$editorName = $panelName;\n        modelEditor -e \n            -camera \"persp\" \n            -useInteractiveMode 0\n            -displayLights \"default\" \n            -displayAppearance \"smoothShaded\" \n            -activeOnly 0\n            -ignorePanZoom 0\n            -wireframeOnShaded 0\n            -headsUpDisplay 1\n            -holdOuts 1\n            -selectionHiliteDisplay 1\n            -useDefaultMaterial 0\n            -bufferMode \"double\" \n            -twoSidedLighting 0\n            -backfaceCulling 0\n            -xray 0\n            -jointXray 0\n            -activeComponentsXray 0\n            -displayTextures 1\n            -smoothWireframe 0\n            -lineWidth 1\n            -textureAnisotropic 0\n            -textureHilight 1\n            -textureSampling 2\n            -textureDisplay \"modulate\" \n            -textureMaxSize 16384\n            -fogging 0\n            -fogSource \"fragment\" \n"
		+ "            -fogMode \"linear\" \n            -fogStart 0\n            -fogEnd 100\n            -fogDensity 0.1\n            -fogColor 0.5 0.5 0.5 1 \n            -depthOfFieldPreview 1\n            -maxConstantTransparency 1\n            -rendererName \"vp2Renderer\" \n            -objectFilterShowInHUD 1\n            -isFiltered 0\n            -colorResolution 256 256 \n            -bumpResolution 512 512 \n            -textureCompression 0\n            -transparencyAlgorithm \"frontAndBackCull\" \n            -transpInShadows 0\n            -cullingOverride \"none\" \n            -lowQualityLighting 0\n            -maximumNumHardwareLights 1\n            -occlusionCulling 0\n            -shadingModel 0\n            -useBaseRenderer 0\n            -useReducedRenderer 0\n            -smallObjectCulling 0\n            -smallObjectThreshold -1 \n            -interactiveDisableShadows 0\n            -interactiveBackFaceCull 0\n            -sortTransparent 1\n            -nurbsCurves 0\n            -nurbsSurfaces 0\n            -polymeshes 1\n            -subdivSurfaces 0\n"
		+ "            -planes 0\n            -lights 0\n            -cameras 0\n            -controlVertices 0\n            -hulls 0\n            -grid 1\n            -imagePlane 0\n            -joints 0\n            -ikHandles 0\n            -deformers 0\n            -dynamics 0\n            -particleInstancers 0\n            -fluids 0\n            -hairSystems 0\n            -follicles 0\n            -nCloths 0\n            -nParticles 0\n            -nRigids 0\n            -dynamicConstraints 0\n            -locators 0\n            -manipulators 1\n            -pluginShapes 0\n            -dimensions 0\n            -handles 0\n            -pivots 0\n            -textures 0\n            -strokes 0\n            -motionTrails 0\n            -clipGhosts 0\n            -greasePencils 0\n            -shadows 0\n            -captureSequenceNumber -1\n            -width 1557\n            -height 964\n            -sceneRenderFilter 0\n            $editorName;\n        modelEditor -e -viewSelected 0 $editorName;\n\t\tif (!$useSceneConfig) {\n\t\t\tpanel -e -l $label $panelName;\n"
		+ "\t\t}\n\t}\n\n\n\t$panelName = `sceneUIReplacement -getNextPanel \"outlinerPanel\" (localizedPanelLabel(\"ToggledOutliner\")) `;\n\tif (\"\" != $panelName) {\n\t\t$label = `panel -q -label $panelName`;\n\t\toutlinerPanel -edit -l (localizedPanelLabel(\"ToggledOutliner\")) -mbv $menusOkayInPanels  $panelName;\n\t\t$editorName = $panelName;\n        outlinerEditor -e \n            -showShapes 0\n            -showAssignedMaterials 0\n            -showTimeEditor 1\n            -showReferenceNodes 0\n            -showReferenceMembers 0\n            -showAttributes 0\n            -showConnected 0\n            -showAnimCurvesOnly 0\n            -showMuteInfo 0\n            -organizeByLayer 1\n            -showAnimLayerWeight 1\n            -autoExpandLayers 1\n            -autoExpand 0\n            -showDagOnly 1\n            -showAssets 1\n            -showContainedOnly 1\n            -showPublishedAsConnected 0\n            -showContainerContents 1\n            -ignoreDagHierarchy 0\n            -expandConnections 0\n            -showUpstreamCurves 1\n            -showUnitlessCurves 1\n"
		+ "            -showCompounds 1\n            -showLeafs 1\n            -showNumericAttrsOnly 0\n            -highlightActive 1\n            -autoSelectNewObjects 0\n            -doNotSelectNewObjects 0\n            -dropIsParent 1\n            -transmitFilters 0\n            -setFilter \"defaultSetFilter\" \n            -showSetMembers 1\n            -allowMultiSelection 1\n            -alwaysToggleSelect 0\n            -directSelect 0\n            -isSet 0\n            -isSetMember 0\n            -displayMode \"DAG\" \n            -expandObjects 0\n            -setsIgnoreFilters 1\n            -containersIgnoreFilters 0\n            -editAttrName 0\n            -showAttrValues 0\n            -highlightSecondary 0\n            -showUVAttrsOnly 0\n            -showTextureNodesOnly 0\n            -attrAlphaOrder \"default\" \n            -animLayerFilterOptions \"allAffecting\" \n            -sortOrder \"none\" \n            -longNames 0\n            -niceNames 1\n            -showNamespace 1\n            -showPinIcons 0\n            -mapMotionTrails 0\n            -ignoreHiddenAttribute 0\n"
		+ "            -ignoreOutlinerColor 0\n            -renderFilterVisible 0\n            -renderFilterIndex 0\n            -selectionOrder \"chronological\" \n            -expandAttribute 0\n            $editorName;\n\t\tif (!$useSceneConfig) {\n\t\t\tpanel -e -l $label $panelName;\n\t\t}\n\t}\n\n\n\t$panelName = `sceneUIReplacement -getNextPanel \"outlinerPanel\" (localizedPanelLabel(\"Outliner\")) `;\n\tif (\"\" != $panelName) {\n\t\t$label = `panel -q -label $panelName`;\n\t\toutlinerPanel -edit -l (localizedPanelLabel(\"Outliner\")) -mbv $menusOkayInPanels  $panelName;\n\t\t$editorName = $panelName;\n        outlinerEditor -e \n            -docTag \"isolOutln_fromSeln\" \n            -showShapes 0\n            -showAssignedMaterials 0\n            -showTimeEditor 1\n            -showReferenceNodes 0\n            -showReferenceMembers 0\n            -showAttributes 0\n            -showConnected 0\n            -showAnimCurvesOnly 0\n            -showMuteInfo 0\n            -organizeByLayer 1\n            -showAnimLayerWeight 1\n            -autoExpandLayers 1\n            -autoExpand 0\n"
		+ "            -showDagOnly 1\n            -showAssets 1\n            -showContainedOnly 1\n            -showPublishedAsConnected 0\n            -showContainerContents 1\n            -ignoreDagHierarchy 0\n            -expandConnections 0\n            -showUpstreamCurves 1\n            -showUnitlessCurves 1\n            -showCompounds 1\n            -showLeafs 1\n            -showNumericAttrsOnly 0\n            -highlightActive 1\n            -autoSelectNewObjects 0\n            -doNotSelectNewObjects 0\n            -dropIsParent 1\n            -transmitFilters 0\n            -setFilter \"defaultSetFilter\" \n            -showSetMembers 1\n            -allowMultiSelection 1\n            -alwaysToggleSelect 0\n            -directSelect 0\n            -displayMode \"DAG\" \n            -expandObjects 0\n            -setsIgnoreFilters 1\n            -containersIgnoreFilters 0\n            -editAttrName 0\n            -showAttrValues 0\n            -highlightSecondary 0\n            -showUVAttrsOnly 0\n            -showTextureNodesOnly 0\n            -attrAlphaOrder \"default\" \n"
		+ "            -animLayerFilterOptions \"allAffecting\" \n            -sortOrder \"none\" \n            -longNames 0\n            -niceNames 1\n            -showNamespace 1\n            -showPinIcons 0\n            -mapMotionTrails 0\n            -ignoreHiddenAttribute 0\n            -ignoreOutlinerColor 0\n            -renderFilterVisible 0\n            $editorName;\n\t\tif (!$useSceneConfig) {\n\t\t\tpanel -e -l $label $panelName;\n\t\t}\n\t}\n\n\n\t$panelName = `sceneUIReplacement -getNextScriptedPanel \"graphEditor\" (localizedPanelLabel(\"Graph Editor\")) `;\n\tif (\"\" != $panelName) {\n\t\t$label = `panel -q -label $panelName`;\n\t\tscriptedPanel -edit -l (localizedPanelLabel(\"Graph Editor\")) -mbv $menusOkayInPanels  $panelName;\n\n\t\t\t$editorName = ($panelName+\"OutlineEd\");\n            outlinerEditor -e \n                -showShapes 1\n                -showAssignedMaterials 0\n                -showTimeEditor 1\n                -showReferenceNodes 0\n                -showReferenceMembers 0\n                -showAttributes 1\n                -showConnected 1\n                -showAnimCurvesOnly 1\n"
		+ "                -showMuteInfo 0\n                -organizeByLayer 1\n                -showAnimLayerWeight 1\n                -autoExpandLayers 1\n                -autoExpand 1\n                -showDagOnly 0\n                -showAssets 1\n                -showContainedOnly 0\n                -showPublishedAsConnected 0\n                -showContainerContents 0\n                -ignoreDagHierarchy 0\n                -expandConnections 1\n                -showUpstreamCurves 1\n                -showUnitlessCurves 1\n                -showCompounds 0\n                -showLeafs 1\n                -showNumericAttrsOnly 1\n                -highlightActive 0\n                -autoSelectNewObjects 1\n                -doNotSelectNewObjects 0\n                -dropIsParent 1\n                -transmitFilters 1\n                -setFilter \"0\" \n                -showSetMembers 0\n                -allowMultiSelection 1\n                -alwaysToggleSelect 0\n                -directSelect 0\n                -displayMode \"DAG\" \n                -expandObjects 0\n"
		+ "                -setsIgnoreFilters 1\n                -containersIgnoreFilters 0\n                -editAttrName 0\n                -showAttrValues 0\n                -highlightSecondary 0\n                -showUVAttrsOnly 0\n                -showTextureNodesOnly 0\n                -attrAlphaOrder \"default\" \n                -animLayerFilterOptions \"allAffecting\" \n                -sortOrder \"none\" \n                -longNames 0\n                -niceNames 1\n                -showNamespace 1\n                -showPinIcons 1\n                -mapMotionTrails 1\n                -ignoreHiddenAttribute 0\n                -ignoreOutlinerColor 0\n                -renderFilterVisible 0\n                $editorName;\n\n\t\t\t$editorName = ($panelName+\"GraphEd\");\n            animCurveEditor -e \n                -displayKeys 1\n                -displayTangents 0\n                -displayActiveKeys 0\n                -displayActiveKeyTangents 1\n                -displayInfinities 0\n                -displayValues 0\n                -autoFit 1\n                -snapTime \"integer\" \n"
		+ "                -snapValue \"none\" \n                -showResults \"off\" \n                -showBufferCurves \"off\" \n                -smoothness \"fine\" \n                -resultSamples 1\n                -resultScreenSamples 0\n                -resultUpdate \"delayed\" \n                -showUpstreamCurves 1\n                -showCurveNames 0\n                -showActiveCurveNames 0\n                -stackedCurves 0\n                -stackedCurvesMin -1\n                -stackedCurvesMax 1\n                -stackedCurvesSpace 0.2\n                -displayNormalized 0\n                -preSelectionHighlight 0\n                -constrainDrag 0\n                -classicMode 1\n                -valueLinesToggle 0\n                -outliner \"graphEditor1OutlineEd\" \n                $editorName;\n\t\tif (!$useSceneConfig) {\n\t\t\tpanel -e -l $label $panelName;\n\t\t}\n\t}\n\n\n\t$panelName = `sceneUIReplacement -getNextScriptedPanel \"dopeSheetPanel\" (localizedPanelLabel(\"Dope Sheet\")) `;\n\tif (\"\" != $panelName) {\n\t\t$label = `panel -q -label $panelName`;\n\t\tscriptedPanel -edit -l (localizedPanelLabel(\"Dope Sheet\")) -mbv $menusOkayInPanels  $panelName;\n"
		+ "\n\t\t\t$editorName = ($panelName+\"OutlineEd\");\n            outlinerEditor -e \n                -showShapes 1\n                -showAssignedMaterials 0\n                -showTimeEditor 1\n                -showReferenceNodes 0\n                -showReferenceMembers 0\n                -showAttributes 1\n                -showConnected 1\n                -showAnimCurvesOnly 1\n                -showMuteInfo 0\n                -organizeByLayer 1\n                -showAnimLayerWeight 1\n                -autoExpandLayers 1\n                -autoExpand 0\n                -showDagOnly 0\n                -showAssets 1\n                -showContainedOnly 0\n                -showPublishedAsConnected 0\n                -showContainerContents 0\n                -ignoreDagHierarchy 0\n                -expandConnections 1\n                -showUpstreamCurves 1\n                -showUnitlessCurves 0\n                -showCompounds 1\n                -showLeafs 1\n                -showNumericAttrsOnly 1\n                -highlightActive 0\n                -autoSelectNewObjects 0\n"
		+ "                -doNotSelectNewObjects 1\n                -dropIsParent 1\n                -transmitFilters 0\n                -setFilter \"0\" \n                -showSetMembers 0\n                -allowMultiSelection 1\n                -alwaysToggleSelect 0\n                -directSelect 0\n                -displayMode \"DAG\" \n                -expandObjects 0\n                -setsIgnoreFilters 1\n                -containersIgnoreFilters 0\n                -editAttrName 0\n                -showAttrValues 0\n                -highlightSecondary 0\n                -showUVAttrsOnly 0\n                -showTextureNodesOnly 0\n                -attrAlphaOrder \"default\" \n                -animLayerFilterOptions \"allAffecting\" \n                -sortOrder \"none\" \n                -longNames 0\n                -niceNames 1\n                -showNamespace 1\n                -showPinIcons 0\n                -mapMotionTrails 1\n                -ignoreHiddenAttribute 0\n                -ignoreOutlinerColor 0\n                -renderFilterVisible 0\n                $editorName;\n"
		+ "\n\t\t\t$editorName = ($panelName+\"DopeSheetEd\");\n            dopeSheetEditor -e \n                -displayKeys 1\n                -displayTangents 0\n                -displayActiveKeys 0\n                -displayActiveKeyTangents 0\n                -displayInfinities 0\n                -displayValues 0\n                -autoFit 0\n                -snapTime \"integer\" \n                -snapValue \"none\" \n                -outliner \"dopeSheetPanel1OutlineEd\" \n                -showSummary 1\n                -showScene 0\n                -hierarchyBelow 0\n                -showTicks 1\n                -selectionWindow 0 0 0 0 \n                $editorName;\n\t\tif (!$useSceneConfig) {\n\t\t\tpanel -e -l $label $panelName;\n\t\t}\n\t}\n\n\n\t$panelName = `sceneUIReplacement -getNextScriptedPanel \"timeEditorPanel\" (localizedPanelLabel(\"Time Editor\")) `;\n\tif (\"\" != $panelName) {\n\t\t$label = `panel -q -label $panelName`;\n\t\tscriptedPanel -edit -l (localizedPanelLabel(\"Time Editor\")) -mbv $menusOkayInPanels  $panelName;\n\t\tif (!$useSceneConfig) {\n\t\t\tpanel -e -l $label $panelName;\n"
		+ "\t\t}\n\t}\n\n\n\t$panelName = `sceneUIReplacement -getNextScriptedPanel \"clipEditorPanel\" (localizedPanelLabel(\"Trax Editor\")) `;\n\tif (\"\" != $panelName) {\n\t\t$label = `panel -q -label $panelName`;\n\t\tscriptedPanel -edit -l (localizedPanelLabel(\"Trax Editor\")) -mbv $menusOkayInPanels  $panelName;\n\n\t\t\t$editorName = clipEditorNameFromPanel($panelName);\n            clipEditor -e \n                -displayKeys 0\n                -displayTangents 0\n                -displayActiveKeys 0\n                -displayActiveKeyTangents 0\n                -displayInfinities 0\n                -displayValues 0\n                -autoFit 0\n                -snapTime \"none\" \n                -snapValue \"none\" \n                -initialized 0\n                -manageSequencer 0 \n                $editorName;\n\t\tif (!$useSceneConfig) {\n\t\t\tpanel -e -l $label $panelName;\n\t\t}\n\t}\n\n\n\t$panelName = `sceneUIReplacement -getNextScriptedPanel \"sequenceEditorPanel\" (localizedPanelLabel(\"Camera Sequencer\")) `;\n\tif (\"\" != $panelName) {\n\t\t$label = `panel -q -label $panelName`;\n"
		+ "\t\tscriptedPanel -edit -l (localizedPanelLabel(\"Camera Sequencer\")) -mbv $menusOkayInPanels  $panelName;\n\n\t\t\t$editorName = sequenceEditorNameFromPanel($panelName);\n            clipEditor -e \n                -displayKeys 0\n                -displayTangents 0\n                -displayActiveKeys 0\n                -displayActiveKeyTangents 0\n                -displayInfinities 0\n                -displayValues 0\n                -autoFit 0\n                -snapTime \"none\" \n                -snapValue \"none\" \n                -initialized 0\n                -manageSequencer 1 \n                $editorName;\n\t\tif (!$useSceneConfig) {\n\t\t\tpanel -e -l $label $panelName;\n\t\t}\n\t}\n\n\n\t$panelName = `sceneUIReplacement -getNextScriptedPanel \"hyperGraphPanel\" (localizedPanelLabel(\"Hypergraph Hierarchy\")) `;\n\tif (\"\" != $panelName) {\n\t\t$label = `panel -q -label $panelName`;\n\t\tscriptedPanel -edit -l (localizedPanelLabel(\"Hypergraph Hierarchy\")) -mbv $menusOkayInPanels  $panelName;\n\n\t\t\t$editorName = ($panelName+\"HyperGraphEd\");\n            hyperGraph -e \n"
		+ "                -graphLayoutStyle \"hierarchicalLayout\" \n                -orientation \"horiz\" \n                -mergeConnections 0\n                -zoom 1\n                -animateTransition 0\n                -showRelationships 1\n                -showShapes 0\n                -showDeformers 0\n                -showExpressions 0\n                -showConstraints 0\n                -showConnectionFromSelected 0\n                -showConnectionToSelected 0\n                -showConstraintLabels 0\n                -showUnderworld 0\n                -showInvisible 0\n                -transitionFrames 1\n                -opaqueContainers 0\n                -freeform 0\n                -imagePosition 0 0 \n                -imageScale 1\n                -imageEnabled 0\n                -graphType \"DAG\" \n                -heatMapDisplay 0\n                -updateSelection 1\n                -updateNodeAdded 1\n                -useDrawOverrideColor 0\n                -limitGraphTraversal -1\n                -range 0 0 \n                -iconSize \"smallIcons\" \n"
		+ "                -showCachedConnections 0\n                $editorName;\n\t\tif (!$useSceneConfig) {\n\t\t\tpanel -e -l $label $panelName;\n\t\t}\n\t}\n\n\n\t$panelName = `sceneUIReplacement -getNextScriptedPanel \"visorPanel\" (localizedPanelLabel(\"Visor\")) `;\n\tif (\"\" != $panelName) {\n\t\t$label = `panel -q -label $panelName`;\n\t\tscriptedPanel -edit -l (localizedPanelLabel(\"Visor\")) -mbv $menusOkayInPanels  $panelName;\n\t\tif (!$useSceneConfig) {\n\t\t\tpanel -e -l $label $panelName;\n\t\t}\n\t}\n\n\n\t$panelName = `sceneUIReplacement -getNextScriptedPanel \"createNodePanel\" (localizedPanelLabel(\"Create Node\")) `;\n\tif (\"\" != $panelName) {\n\t\t$label = `panel -q -label $panelName`;\n\t\tscriptedPanel -edit -l (localizedPanelLabel(\"Create Node\")) -mbv $menusOkayInPanels  $panelName;\n\t\tif (!$useSceneConfig) {\n\t\t\tpanel -e -l $label $panelName;\n\t\t}\n\t}\n\n\n\t$panelName = `sceneUIReplacement -getNextScriptedPanel \"polyTexturePlacementPanel\" (localizedPanelLabel(\"UV Editor\")) `;\n\tif (\"\" != $panelName) {\n\t\t$label = `panel -q -label $panelName`;\n\t\tscriptedPanel -edit -l (localizedPanelLabel(\"UV Editor\")) -mbv $menusOkayInPanels  $panelName;\n"
		+ "\t\tif (!$useSceneConfig) {\n\t\t\tpanel -e -l $label $panelName;\n\t\t}\n\t}\n\n\n\t$panelName = `sceneUIReplacement -getNextScriptedPanel \"renderWindowPanel\" (localizedPanelLabel(\"Render View\")) `;\n\tif (\"\" != $panelName) {\n\t\t$label = `panel -q -label $panelName`;\n\t\tscriptedPanel -edit -l (localizedPanelLabel(\"Render View\")) -mbv $menusOkayInPanels  $panelName;\n\t\tif (!$useSceneConfig) {\n\t\t\tpanel -e -l $label $panelName;\n\t\t}\n\t}\n\n\n\t$panelName = `sceneUIReplacement -getNextPanel \"shapePanel\" (localizedPanelLabel(\"Shape Editor\")) `;\n\tif (\"\" != $panelName) {\n\t\t$label = `panel -q -label $panelName`;\n\t\tshapePanel -edit -l (localizedPanelLabel(\"Shape Editor\")) -mbv $menusOkayInPanels  $panelName;\n\t\tif (!$useSceneConfig) {\n\t\t\tpanel -e -l $label $panelName;\n\t\t}\n\t}\n\n\n\t$panelName = `sceneUIReplacement -getNextPanel \"posePanel\" (localizedPanelLabel(\"Pose Editor\")) `;\n\tif (\"\" != $panelName) {\n\t\t$label = `panel -q -label $panelName`;\n\t\tposePanel -edit -l (localizedPanelLabel(\"Pose Editor\")) -mbv $menusOkayInPanels  $panelName;\n\t\tif (!$useSceneConfig) {\n"
		+ "\t\t\tpanel -e -l $label $panelName;\n\t\t}\n\t}\n\n\n\t$panelName = `sceneUIReplacement -getNextScriptedPanel \"dynRelEdPanel\" (localizedPanelLabel(\"Dynamic Relationships\")) `;\n\tif (\"\" != $panelName) {\n\t\t$label = `panel -q -label $panelName`;\n\t\tscriptedPanel -edit -l (localizedPanelLabel(\"Dynamic Relationships\")) -mbv $menusOkayInPanels  $panelName;\n\t\tif (!$useSceneConfig) {\n\t\t\tpanel -e -l $label $panelName;\n\t\t}\n\t}\n\n\n\t$panelName = `sceneUIReplacement -getNextScriptedPanel \"relationshipPanel\" (localizedPanelLabel(\"Relationship Editor\")) `;\n\tif (\"\" != $panelName) {\n\t\t$label = `panel -q -label $panelName`;\n\t\tscriptedPanel -edit -l (localizedPanelLabel(\"Relationship Editor\")) -mbv $menusOkayInPanels  $panelName;\n\t\tif (!$useSceneConfig) {\n\t\t\tpanel -e -l $label $panelName;\n\t\t}\n\t}\n\n\n\t$panelName = `sceneUIReplacement -getNextScriptedPanel \"referenceEditorPanel\" (localizedPanelLabel(\"Reference Editor\")) `;\n\tif (\"\" != $panelName) {\n\t\t$label = `panel -q -label $panelName`;\n\t\tscriptedPanel -edit -l (localizedPanelLabel(\"Reference Editor\")) -mbv $menusOkayInPanels  $panelName;\n"
		+ "\t\tif (!$useSceneConfig) {\n\t\t\tpanel -e -l $label $panelName;\n\t\t}\n\t}\n\n\n\t$panelName = `sceneUIReplacement -getNextScriptedPanel \"componentEditorPanel\" (localizedPanelLabel(\"Component Editor\")) `;\n\tif (\"\" != $panelName) {\n\t\t$label = `panel -q -label $panelName`;\n\t\tscriptedPanel -edit -l (localizedPanelLabel(\"Component Editor\")) -mbv $menusOkayInPanels  $panelName;\n\t\tif (!$useSceneConfig) {\n\t\t\tpanel -e -l $label $panelName;\n\t\t}\n\t}\n\n\n\t$panelName = `sceneUIReplacement -getNextScriptedPanel \"dynPaintScriptedPanelType\" (localizedPanelLabel(\"Paint Effects\")) `;\n\tif (\"\" != $panelName) {\n\t\t$label = `panel -q -label $panelName`;\n\t\tscriptedPanel -edit -l (localizedPanelLabel(\"Paint Effects\")) -mbv $menusOkayInPanels  $panelName;\n\t\tif (!$useSceneConfig) {\n\t\t\tpanel -e -l $label $panelName;\n\t\t}\n\t}\n\n\n\t$panelName = `sceneUIReplacement -getNextScriptedPanel \"scriptEditorPanel\" (localizedPanelLabel(\"Script Editor\")) `;\n\tif (\"\" != $panelName) {\n\t\t$label = `panel -q -label $panelName`;\n\t\tscriptedPanel -edit -l (localizedPanelLabel(\"Script Editor\")) -mbv $menusOkayInPanels  $panelName;\n"
		+ "\t\tif (!$useSceneConfig) {\n\t\t\tpanel -e -l $label $panelName;\n\t\t}\n\t}\n\n\n\t$panelName = `sceneUIReplacement -getNextScriptedPanel \"profilerPanel\" (localizedPanelLabel(\"Profiler Tool\")) `;\n\tif (\"\" != $panelName) {\n\t\t$label = `panel -q -label $panelName`;\n\t\tscriptedPanel -edit -l (localizedPanelLabel(\"Profiler Tool\")) -mbv $menusOkayInPanels  $panelName;\n\t\tif (!$useSceneConfig) {\n\t\t\tpanel -e -l $label $panelName;\n\t\t}\n\t}\n\n\n\t$panelName = `sceneUIReplacement -getNextScriptedPanel \"contentBrowserPanel\" (localizedPanelLabel(\"Content Browser\")) `;\n\tif (\"\" != $panelName) {\n\t\t$label = `panel -q -label $panelName`;\n\t\tscriptedPanel -edit -l (localizedPanelLabel(\"Content Browser\")) -mbv $menusOkayInPanels  $panelName;\n\t\tif (!$useSceneConfig) {\n\t\t\tpanel -e -l $label $panelName;\n\t\t}\n\t}\n\n\n\t$panelName = `sceneUIReplacement -getNextScriptedPanel \"Stereo\" (localizedPanelLabel(\"Stereo\")) `;\n\tif (\"\" != $panelName) {\n\t\t$label = `panel -q -label $panelName`;\n\t\tscriptedPanel -edit -l (localizedPanelLabel(\"Stereo\")) -mbv $menusOkayInPanels  $panelName;\n"
		+ "string $editorName = ($panelName+\"Editor\");\n            stereoCameraView -e \n                -camera \"persp\" \n                -useInteractiveMode 0\n                -displayLights \"default\" \n                -displayAppearance \"wireframe\" \n                -activeOnly 0\n                -ignorePanZoom 0\n                -wireframeOnShaded 0\n                -headsUpDisplay 1\n                -holdOuts 1\n                -selectionHiliteDisplay 1\n                -useDefaultMaterial 0\n                -bufferMode \"double\" \n                -twoSidedLighting 1\n                -backfaceCulling 0\n                -xray 0\n                -jointXray 0\n                -activeComponentsXray 0\n                -displayTextures 0\n                -smoothWireframe 0\n                -lineWidth 1\n                -textureAnisotropic 0\n                -textureHilight 1\n                -textureSampling 2\n                -textureDisplay \"modulate\" \n                -textureMaxSize 16384\n                -fogging 0\n                -fogSource \"fragment\" \n"
		+ "                -fogMode \"linear\" \n                -fogStart 0\n                -fogEnd 100\n                -fogDensity 0.1\n                -fogColor 0.5 0.5 0.5 1 \n                -depthOfFieldPreview 1\n                -maxConstantTransparency 1\n                -objectFilterShowInHUD 1\n                -isFiltered 0\n                -colorResolution 4 4 \n                -bumpResolution 4 4 \n                -textureCompression 0\n                -transparencyAlgorithm \"frontAndBackCull\" \n                -transpInShadows 0\n                -cullingOverride \"none\" \n                -lowQualityLighting 0\n                -maximumNumHardwareLights 0\n                -occlusionCulling 0\n                -shadingModel 0\n                -useBaseRenderer 0\n                -useReducedRenderer 0\n                -smallObjectCulling 0\n                -smallObjectThreshold -1 \n                -interactiveDisableShadows 0\n                -interactiveBackFaceCull 0\n                -sortTransparent 1\n                -nurbsCurves 1\n                -nurbsSurfaces 1\n"
		+ "                -polymeshes 1\n                -subdivSurfaces 1\n                -planes 1\n                -lights 1\n                -cameras 1\n                -controlVertices 1\n                -hulls 1\n                -grid 1\n                -imagePlane 1\n                -joints 1\n                -ikHandles 1\n                -deformers 1\n                -dynamics 1\n                -particleInstancers 1\n                -fluids 1\n                -hairSystems 1\n                -follicles 1\n                -nCloths 1\n                -nParticles 1\n                -nRigids 1\n                -dynamicConstraints 1\n                -locators 1\n                -manipulators 1\n                -pluginShapes 1\n                -dimensions 1\n                -handles 1\n                -pivots 1\n                -textures 1\n                -strokes 1\n                -motionTrails 1\n                -clipGhosts 1\n                -greasePencils 1\n                -shadows 0\n                -captureSequenceNumber -1\n                -width 0\n"
		+ "                -height 0\n                -sceneRenderFilter 0\n                -displayMode \"centerEye\" \n                -viewColor 0 0 0 1 \n                -useCustomBackground 1\n                $editorName;\n            stereoCameraView -e -viewSelected 0 $editorName;\n\t\tif (!$useSceneConfig) {\n\t\t\tpanel -e -l $label $panelName;\n\t\t}\n\t}\n\n\n\t$panelName = `sceneUIReplacement -getNextScriptedPanel \"hyperShadePanel\" (localizedPanelLabel(\"Hypershade\")) `;\n\tif (\"\" != $panelName) {\n\t\t$label = `panel -q -label $panelName`;\n\t\tscriptedPanel -edit -l (localizedPanelLabel(\"Hypershade\")) -mbv $menusOkayInPanels  $panelName;\n\t\tif (!$useSceneConfig) {\n\t\t\tpanel -e -l $label $panelName;\n\t\t}\n\t}\n\n\n\t$panelName = `sceneUIReplacement -getNextScriptedPanel \"nodeEditorPanel\" (localizedPanelLabel(\"Node Editor\")) `;\n\tif (\"\" != $panelName) {\n\t\t$label = `panel -q -label $panelName`;\n\t\tscriptedPanel -edit -l (localizedPanelLabel(\"Node Editor\")) -mbv $menusOkayInPanels  $panelName;\n\n\t\t\t$editorName = ($panelName+\"NodeEditorEd\");\n            nodeEditor -e \n"
		+ "                -allAttributes 0\n                -allNodes 0\n                -autoSizeNodes 1\n                -consistentNameSize 1\n                -createNodeCommand \"nodeEdCreateNodeCommand\" \n                -defaultPinnedState 0\n                -additiveGraphingMode 0\n                -settingsChangedCallback \"nodeEdSyncControls\" \n                -traversalDepthLimit -1\n                -keyPressCommand \"nodeEdKeyPressCommand\" \n                -nodeTitleMode \"name\" \n                -gridSnap 0\n                -gridVisibility 1\n                -popupMenuScript \"nodeEdBuildPanelMenus\" \n                -showNamespace 1\n                -showShapes 1\n                -showSGShapes 0\n                -showTransforms 1\n                -useAssets 1\n                -syncedSelection 1\n                -extendToShapes 1\n                -activeTab 0\n                -editorMode \"default\" \n                $editorName;\n\t\tif (!$useSceneConfig) {\n\t\t\tpanel -e -l $label $panelName;\n\t\t}\n\t}\n\n\n\tif ($useSceneConfig) {\n        string $configName = `getPanel -cwl (localizedPanelLabel(\"Current Layout\"))`;\n"
		+ "        if (\"\" != $configName) {\n\t\t\tpanelConfiguration -edit -label (localizedPanelLabel(\"Current Layout\")) \n\t\t\t\t-userCreated false\n\t\t\t\t-defaultImage \"vacantCell.xP:/\"\n\t\t\t\t-image \"\"\n\t\t\t\t-sc false\n\t\t\t\t-configString \"global string $gMainPane; paneLayout -e -cn \\\"single\\\" -ps 1 100 100 $gMainPane;\"\n\t\t\t\t-removeAllPanels\n\t\t\t\t-ap false\n\t\t\t\t\t(localizedPanelLabel(\"Persp View\")) \n\t\t\t\t\t\"modelPanel\"\n"
		+ "\t\t\t\t\t\"$panelName = `modelPanel -unParent -l (localizedPanelLabel(\\\"Persp View\\\")) -mbv $menusOkayInPanels `;\\n$editorName = $panelName;\\nmodelEditor -e \\n    -cam `findStartUpCamera persp` \\n    -useInteractiveMode 0\\n    -displayLights \\\"default\\\" \\n    -displayAppearance \\\"smoothShaded\\\" \\n    -activeOnly 0\\n    -ignorePanZoom 0\\n    -wireframeOnShaded 0\\n    -headsUpDisplay 1\\n    -holdOuts 1\\n    -selectionHiliteDisplay 1\\n    -useDefaultMaterial 0\\n    -bufferMode \\\"double\\\" \\n    -twoSidedLighting 0\\n    -backfaceCulling 0\\n    -xray 0\\n    -jointXray 0\\n    -activeComponentsXray 0\\n    -displayTextures 1\\n    -smoothWireframe 0\\n    -lineWidth 1\\n    -textureAnisotropic 0\\n    -textureHilight 1\\n    -textureSampling 2\\n    -textureDisplay \\\"modulate\\\" \\n    -textureMaxSize 16384\\n    -fogging 0\\n    -fogSource \\\"fragment\\\" \\n    -fogMode \\\"linear\\\" \\n    -fogStart 0\\n    -fogEnd 100\\n    -fogDensity 0.1\\n    -fogColor 0.5 0.5 0.5 1 \\n    -depthOfFieldPreview 1\\n    -maxConstantTransparency 1\\n    -rendererName \\\"vp2Renderer\\\" \\n    -objectFilterShowInHUD 1\\n    -isFiltered 0\\n    -colorResolution 256 256 \\n    -bumpResolution 512 512 \\n    -textureCompression 0\\n    -transparencyAlgorithm \\\"frontAndBackCull\\\" \\n    -transpInShadows 0\\n    -cullingOverride \\\"none\\\" \\n    -lowQualityLighting 0\\n    -maximumNumHardwareLights 1\\n    -occlusionCulling 0\\n    -shadingModel 0\\n    -useBaseRenderer 0\\n    -useReducedRenderer 0\\n    -smallObjectCulling 0\\n    -smallObjectThreshold -1 \\n    -interactiveDisableShadows 0\\n    -interactiveBackFaceCull 0\\n    -sortTransparent 1\\n    -nurbsCurves 0\\n    -nurbsSurfaces 0\\n    -polymeshes 1\\n    -subdivSurfaces 0\\n    -planes 0\\n    -lights 0\\n    -cameras 0\\n    -controlVertices 0\\n    -hulls 0\\n    -grid 1\\n    -imagePlane 0\\n    -joints 0\\n    -ikHandles 0\\n    -deformers 0\\n    -dynamics 0\\n    -particleInstancers 0\\n    -fluids 0\\n    -hairSystems 0\\n    -follicles 0\\n    -nCloths 0\\n    -nParticles 0\\n    -nRigids 0\\n    -dynamicConstraints 0\\n    -locators 0\\n    -manipulators 1\\n    -pluginShapes 0\\n    -dimensions 0\\n    -handles 0\\n    -pivots 0\\n    -textures 0\\n    -strokes 0\\n    -motionTrails 0\\n    -clipGhosts 0\\n    -greasePencils 0\\n    -shadows 0\\n    -captureSequenceNumber -1\\n    -width 1557\\n    -height 964\\n    -sceneRenderFilter 0\\n    $editorName;\\nmodelEditor -e -viewSelected 0 $editorName\"\n"
		+ "\t\t\t\t\t\"modelPanel -edit -l (localizedPanelLabel(\\\"Persp View\\\")) -mbv $menusOkayInPanels  $panelName;\\n$editorName = $panelName;\\nmodelEditor -e \\n    -cam `findStartUpCamera persp` \\n    -useInteractiveMode 0\\n    -displayLights \\\"default\\\" \\n    -displayAppearance \\\"smoothShaded\\\" \\n    -activeOnly 0\\n    -ignorePanZoom 0\\n    -wireframeOnShaded 0\\n    -headsUpDisplay 1\\n    -holdOuts 1\\n    -selectionHiliteDisplay 1\\n    -useDefaultMaterial 0\\n    -bufferMode \\\"double\\\" \\n    -twoSidedLighting 0\\n    -backfaceCulling 0\\n    -xray 0\\n    -jointXray 0\\n    -activeComponentsXray 0\\n    -displayTextures 1\\n    -smoothWireframe 0\\n    -lineWidth 1\\n    -textureAnisotropic 0\\n    -textureHilight 1\\n    -textureSampling 2\\n    -textureDisplay \\\"modulate\\\" \\n    -textureMaxSize 16384\\n    -fogging 0\\n    -fogSource \\\"fragment\\\" \\n    -fogMode \\\"linear\\\" \\n    -fogStart 0\\n    -fogEnd 100\\n    -fogDensity 0.1\\n    -fogColor 0.5 0.5 0.5 1 \\n    -depthOfFieldPreview 1\\n    -maxConstantTransparency 1\\n    -rendererName \\\"vp2Renderer\\\" \\n    -objectFilterShowInHUD 1\\n    -isFiltered 0\\n    -colorResolution 256 256 \\n    -bumpResolution 512 512 \\n    -textureCompression 0\\n    -transparencyAlgorithm \\\"frontAndBackCull\\\" \\n    -transpInShadows 0\\n    -cullingOverride \\\"none\\\" \\n    -lowQualityLighting 0\\n    -maximumNumHardwareLights 1\\n    -occlusionCulling 0\\n    -shadingModel 0\\n    -useBaseRenderer 0\\n    -useReducedRenderer 0\\n    -smallObjectCulling 0\\n    -smallObjectThreshold -1 \\n    -interactiveDisableShadows 0\\n    -interactiveBackFaceCull 0\\n    -sortTransparent 1\\n    -nurbsCurves 0\\n    -nurbsSurfaces 0\\n    -polymeshes 1\\n    -subdivSurfaces 0\\n    -planes 0\\n    -lights 0\\n    -cameras 0\\n    -controlVertices 0\\n    -hulls 0\\n    -grid 1\\n    -imagePlane 0\\n    -joints 0\\n    -ikHandles 0\\n    -deformers 0\\n    -dynamics 0\\n    -particleInstancers 0\\n    -fluids 0\\n    -hairSystems 0\\n    -follicles 0\\n    -nCloths 0\\n    -nParticles 0\\n    -nRigids 0\\n    -dynamicConstraints 0\\n    -locators 0\\n    -manipulators 1\\n    -pluginShapes 0\\n    -dimensions 0\\n    -handles 0\\n    -pivots 0\\n    -textures 0\\n    -strokes 0\\n    -motionTrails 0\\n    -clipGhosts 0\\n    -greasePencils 0\\n    -shadows 0\\n    -captureSequenceNumber -1\\n    -width 1557\\n    -height 964\\n    -sceneRenderFilter 0\\n    $editorName;\\nmodelEditor -e -viewSelected 0 $editorName\"\n"
		+ "\t\t\t\t$configName;\n\n            setNamedPanelLayout (localizedPanelLabel(\"Current Layout\"));\n        }\n\n        panelHistory -e -clear mainPanelHistory;\n        sceneUIReplacement -clear;\n\t}\n\n\ngrid -spacing 5 -size 15 -divisions 5 -displayAxes yes -displayGridLines yes -displayDivisionLines yes -displayPerspectiveLabels no -displayOrthographicLabels no -displayAxesBold yes -perspectiveLabelPosition axis -orthographicLabelPosition edge;\nviewManip -drawCompass 0 -compassAngle 0 -frontParameters \"\" -homeParameters \"\" -selectionLockParameters \"\";\n}\n");
	setAttr ".st" 3;
createNode script -n "sceneConfigurationScriptNode";
	rename -uid "C6D758F5-9749-EFD2-B4E3-C6913467DEE7";
	setAttr ".b" -type "string" "playbackOptions -min 0 -max 400 -ast 0 -aet 11900 ";
	setAttr ".st" 6;
createNode polyPlane -n "polyPlane1";
	rename -uid "FEC3F12E-B743-3A64-B4A7-D09B6897E904";
	setAttr ".cuv" 2;
createNode surfaceShader -n "gsSurfaceShader1";
	rename -uid "F0A0DA3F-594A-2504-EE21-08894149B6A3";
	addAttr -ci true -sn "resolution" -ln "resolution" -at "long";
	setAttr -k on ".resolution" 512;
createNode shadingEngine -n "surfaceShader1SG";
	rename -uid "9332DFCB-364E-0990-49A2-6BB5BFEA0583";
	setAttr ".ihi" 0;
	setAttr -s 3 ".dsm";
	setAttr ".ro" yes;
createNode materialInfo -n "materialInfo1";
	rename -uid "D2CF203E-4349-2438-E8FE-82BCA4414A00";
createNode place2dTexture -n "place2dTexture2";
	rename -uid "6964ABD5-6B4C-09D6-E6EA-709C1C1A53EE";
createNode shadingEngine -n "surfaceShader2SG";
	rename -uid "E609C0FC-4C49-C531-A405-769FD2D4301F";
	setAttr ".ihi" 0;
	setAttr ".ro" yes;
createNode materialInfo -n "materialInfo2";
	rename -uid "94B5FAE0-9841-D18B-51D9-F7A3C344E15B";
createNode polySphere -n "polySphere1";
	rename -uid "51681182-0642-BB30-5DC0-A499E2C2CD53";
createNode polyPlane -n "polyPlane2";
	rename -uid "DB476C87-C448-6163-BCED-6980BA9AD5EB";
	setAttr ".cuv" 2;
createNode ramp -n "ramp1";
	rename -uid "03F6071A-E042-CFDC-5268-CC9ADD2B3088";
	addAttr -ci true -sn "resolution" -ln "resolution" -at "long";
	setAttr -s 4 ".cel";
	setAttr ".cel[2].ec" -type "float3" 0.1372 0.068599999 0.0107 ;
	setAttr ".cel[3].ep" 0.53672313690185547;
	setAttr ".cel[3].ec" -type "float3" 1 1 0 ;
	setAttr ".cel[4].ep" 0.19491524994373322;
	setAttr ".cel[4].ec" -type "float3" 0.70200002 0.21205454 0.084240004 ;
	setAttr ".cel[5].ep" 0.72316384315490723;
	setAttr ".cel[5].ec" -type "float3" 0.81178498 0.89149934 0.90499997 ;
	setAttr -k on ".resolution" 32;
createNode place2dTexture -n "place2dTexture3";
	rename -uid "5C163A80-B244-1522-AB5D-6F9A2C43E4DA";
createNode animCurveTU -n "ramp1_colorEntryList_0__position";
	rename -uid "1B72248C-6D46-296F-DB20-B194235AADCC";
	setAttr ".tan" 18;
	setAttr ".ktv[0]"  101 0;
createNode animCurveTU -n "grayScottShader1_defaultColorR";
	rename -uid "F6ADD998-B74B-DF4D-14F0-49A6CD07E529";
	setAttr ".tan" 18;
	setAttr ".ktv[0]"  19 1;
createNode animCurveTU -n "grayScottShader1_defaultColorG";
	rename -uid "B4F34E38-024C-75CE-05FF-F6B9AC3286B6";
	setAttr ".tan" 18;
	setAttr ".ktv[0]"  19 0;
createNode animCurveTU -n "grayScottShader1_defaultColorB";
	rename -uid "275DC37C-2E46-D224-6B75-ECAED5FB3AFD";
	setAttr ".tan" 18;
	setAttr ".ktv[0]"  19 0;
createNode animCurveTU -n "ramp1_colorEntryList_1__position";
	rename -uid "4A19CE13-154B-F6B9-2C9C-BBBE08F27223";
	setAttr ".tan" 18;
	setAttr ".ktv[0]"  1 0.633431077003479;
createNode animCurveTU -n "grayScottNode1_feedRate";
	rename -uid "2C34D42E-2D49-CE53-21CA-34BE62D100F2";
	setAttr ".tan" 18;
	setAttr -s 2 ".ktv[0:1]"  226 0.032000001519918442 349 0.044042624123028062;
createNode animCurveTU -n "grayScottNode1_killRate";
	rename -uid "C17946FC-8B4D-59BE-79FA-D298A83A35A6";
	setAttr ".tan" 18;
	setAttr -s 2 ".ktv[0:1]"  226 0.059999998658895493 349 0.054806555817850322;
createNode animCurveTU -n "grayScottNode1_diffA";
	rename -uid "F8D1B6B8-8E46-179E-FFF1-5EA0416BC7A8";
	setAttr ".tan" 18;
	setAttr -s 2 ".ktv[0:1]"  226 0.30000001192092896 349 0.32423607851247305;
createNode animCurveTU -n "grayScottNode1_diffB";
	rename -uid "4B3B1E9A-8E4A-D735-7E85-FFA2D56B7556";
	setAttr ".tan" 18;
	setAttr -s 2 ".ktv[0:1]"  226 0.10000000149011612 349 0.080957377739617087;
createNode animCurveTU -n "grayScottNode1_kernelTop0";
	rename -uid "4EEF4594-3245-8D56-D673-A8AB14029D06";
	setAttr ".tan" 3;
	setAttr -s 3 ".ktv[0:2]"  245 0 396 0.05000000074505806 528 0.0016344653062830606;
	setAttr -s 3 ".kit[1:2]"  1 3;
	setAttr -s 3 ".kot[1:2]"  1 3;
	setAttr -s 3 ".kix[1:2]"  7.5416666666666679 5.5;
	setAttr -s 3 ".kiy[1:2]"  0 0;
	setAttr -s 3 ".kox[1:2]"  8.4583333333333339 5.5;
	setAttr -s 3 ".koy[1:2]"  0 0;
createNode animCurveTU -n "grayScottNode1_kernelTop1";
	rename -uid "187D87AD-5645-0782-2422-EDB9D0539B83";
	setAttr ".tan" 3;
	setAttr -s 3 ".ktv[0:2]"  245 0.25 396 0.25 528 0.24836553481549409;
	setAttr -s 3 ".kit[1:2]"  1 3;
	setAttr -s 3 ".kot[1:2]"  1 3;
	setAttr -s 3 ".kix[1:2]"  7.5416666666666679 5.5;
	setAttr -s 3 ".kiy[1:2]"  0 0;
	setAttr -s 3 ".kox[1:2]"  8.4583333333333339 5.5;
	setAttr -s 3 ".koy[1:2]"  0 0;
createNode animCurveTU -n "grayScottNode1_kernelTop2";
	rename -uid "474FBE51-264F-4A4F-290A-73AF19A0FF2C";
	setAttr ".tan" 3;
	setAttr -s 3 ".ktv[0:2]"  245 0.10000000149011612 396 0.05000000074505806
		 528 0.098365536183833063;
	setAttr -s 3 ".kit[1:2]"  1 3;
	setAttr -s 3 ".kot[1:2]"  1 3;
	setAttr -s 3 ".kix[1:2]"  7.5416666666666679 5.5;
	setAttr -s 3 ".kiy[1:2]"  0 0;
	setAttr -s 3 ".kox[1:2]"  8.4583333333333339 5.5;
	setAttr -s 3 ".koy[1:2]"  0 0;
createNode animCurveTU -n "grayScottNode1_kernelMiddle0";
	rename -uid "A3CFB3C9-2C40-FAD6-740E-8FB587658315";
	setAttr ".tan" 3;
	setAttr -s 3 ".ktv[0:2]"  245 0.10000000149011612 396 0.25 528 0.10326893210268225;
	setAttr -s 3 ".kit[1:2]"  1 3;
	setAttr -s 3 ".kot[1:2]"  1 3;
	setAttr -s 3 ".kix[1:2]"  7.5416666666666679 5.5;
	setAttr -s 3 ".kiy[1:2]"  0 0;
	setAttr -s 3 ".kox[1:2]"  8.4583333333333339 5.5;
	setAttr -s 3 ".koy[1:2]"  0 0;
createNode animCurveTU -n "grayScottNode1_kernelMiddle2";
	rename -uid "F41D5B51-9245-1F84-7782-718149389A80";
	setAttr ".tan" 3;
	setAttr -s 3 ".ktv[0:2]"  245 0.27500000596046448 396 0.15 528 0.27254830794015134;
	setAttr -s 3 ".kit[1:2]"  1 3;
	setAttr -s 3 ".kot[1:2]"  1 3;
	setAttr -s 3 ".kix[1:2]"  7.5416666666666679 5.5;
	setAttr -s 3 ".kiy[1:2]"  0 0;
	setAttr -s 3 ".kox[1:2]"  8.4583333333333339 5.5;
	setAttr -s 3 ".koy[1:2]"  0 0;
createNode animCurveTU -n "grayScottNode1_kernelBottom0";
	rename -uid "12F5C254-7445-4692-70CD-A799A279486C";
	setAttr ".tan" 3;
	setAttr -s 3 ".ktv[0:2]"  245 0.05000000074505806 396 0.05000000074505806
		 528 0.05000000074505806;
	setAttr -s 3 ".kit[1:2]"  1 3;
	setAttr -s 3 ".kot[1:2]"  1 3;
	setAttr -s 3 ".kix[1:2]"  7.5416666666666679 5.5;
	setAttr -s 3 ".kiy[1:2]"  0 0;
	setAttr -s 3 ".kox[1:2]"  8.4583333333333339 5.5;
	setAttr -s 3 ".koy[1:2]"  0 0;
createNode animCurveTU -n "grayScottNode1_kernelBottom2";
	rename -uid "97987B15-6440-94C6-BEA9-27A1917463D4";
	setAttr ".tan" 3;
	setAttr -s 3 ".ktv[0:2]"  245 0.10000000149011612 396 0.05000000074505806
		 528 0.098365536183833063;
	setAttr -s 3 ".kit[1:2]"  1 3;
	setAttr -s 3 ".kot[1:2]"  1 3;
	setAttr -s 3 ".kix[1:2]"  7.5416666666666679 5.5;
	setAttr -s 3 ".kiy[1:2]"  0 0;
	setAttr -s 3 ".kox[1:2]"  8.4583333333333339 5.5;
	setAttr -s 3 ".koy[1:2]"  0 0;
createNode animCurveTU -n "grayScottNode1_kernelBottom1";
	rename -uid "3EA94E20-4247-ADC8-DCE3-8189A32C7701";
	setAttr ".tan" 3;
	setAttr -s 3 ".ktv[0:2]"  245 0.125 396 0.15 528 0.12745169802031317;
	setAttr -s 3 ".kit[1:2]"  1 3;
	setAttr -s 3 ".kot[1:2]"  1 3;
	setAttr -s 3 ".kix[1:2]"  7.5416666666666679 5.5;
	setAttr -s 3 ".kiy[1:2]"  0 0;
	setAttr -s 3 ".kox[1:2]"  8.4583333333333339 5.5;
	setAttr -s 3 ".koy[1:2]"  0 0;
createNode nodeGraphEditorInfo -n "hyperShadePrimaryNodeEditorSavedTabsInfo";
	rename -uid "F91ADB81-2243-6EEF-C371-E182A5A54467";
	setAttr ".tgi[0].tn" -type "string" "Untitled_1";
	setAttr ".tgi[0].vl" -type "double2" -821.4285387879338 -611.9168180673197 ;
	setAttr ".tgi[0].vh" -type "double2" 374.99998509883949 569.05967691316675 ;
	setAttr -s 2 ".tgi[0].ni";
	setAttr ".tgi[0].ni[0].x" -300;
	setAttr ".tgi[0].ni[0].y" -15.714285850524902;
	setAttr ".tgi[0].ni[0].nvs" 2098;
	setAttr ".tgi[0].ni[1].x" -607.14288330078125;
	setAttr ".tgi[0].ni[1].y" -117.14286041259766;
	setAttr ".tgi[0].ni[1].nvs" 1923;
createNode ramp -n "ramp2";
	rename -uid "B9CF5871-EA45-54EE-14D5-71B2EA5E8430";
	setAttr ".cg" -type "float3" 0.1 0.1 0.1 ;
	setAttr ".dc" -type "float3" 0 0 0 ;
	setAttr ".t" 4;
	setAttr -s 2 ".cel";
	setAttr ".cel[0].ep" 0.58823531866073608;
	setAttr ".cel[0].ec" -type "float3" 0 0 0 ;
	setAttr ".cel[1].ep" 0.0026737968437373638;
	setAttr ".cel[1].ec" -type "float3" 1 1 1 ;
	setAttr ".n" 0.011363636702299118;
createNode place2dTexture -n "place2dTexture4";
	rename -uid "898D943B-C249-B3B9-29D7-708A9BE76838";
	setAttr ".c" -type "float2" 0.63 1.08 ;
	setAttr ".tf" -type "float2" 0.18000001 -0.07 ;
	setAttr ".wu" no;
	setAttr ".wv" no;
	setAttr -av ".ofu";
createNode animCurveTU -n "place2dTexture4_translateFrameU";
	rename -uid "947E29E8-BB48-E4F3-5A96-0BAC82886863";
	setAttr ".tan" 18;
	setAttr ".ktv[0]"  300 0.18000000715255737;
createNode animCurveTU -n "place2dTexture4_offsetU";
	rename -uid "10F0FFD2-EA4E-AA3E-9671-90BDAD309FC2";
	setAttr ".tan" 9;
	setAttr -s 2 ".ktv[0:1]"  280 0 484 1;
createNode animCurveTU -n "ramp1_colorEntryList_2__position";
	rename -uid "A5FE8246-FD40-2B14-D38C-05ADE82B0F97";
	setAttr ".tan" 18;
	setAttr ".ktv[0]"  16 0;
createNode surfaceShader -n "feedKill";
	rename -uid "172A93B7-6E4C-F138-7DC7-E988CE9FA6FD";
createNode ramp -n "feedRamp";
	rename -uid "234BC583-8243-5C68-1EB6-968E28402308";
	setAttr ".cel[1].ep" 0.99000000953674316;
	setAttr ".cel[1].ec" -type "float3" 0.035 0.035 0.035 ;
createNode place2dTexture -n "place2dTexture5";
	rename -uid "43D6E56A-8149-ECAE-A860-A3A1F37E7096";
createNode ramp -n "killRamp";
	rename -uid "CCB20D14-9D46-9B16-279E-EA9FA54344C2";
	setAttr ".cel[1].ep" 0.99500000476837158;
	setAttr ".cel[1].ec" -type "float3" 0.054000001 0.054000001 0.054000001 ;
createNode place2dTexture -n "place2dTexture6";
	rename -uid "E9180BB4-FD4A-5958-7C24-73934D90ED85";
createNode nodeGraphEditorInfo -n "MayaNodeEditorSavedTabsInfo";
	rename -uid "4BC1FDC0-F946-3661-A2B3-2BA101C61FD5";
	setAttr ".tgi[0].tn" -type "string" "Untitled_1";
	setAttr ".tgi[0].vl" -type "double2" -230.89169216591895 -309.46745187300257 ;
	setAttr ".tgi[0].vh" -type "double2" 1633.9429540280955 574.59111216548899 ;
	setAttr -s 19 ".tgi[0].ni";
	setAttr ".tgi[0].ni[0].x" 73.21429443359375;
	setAttr ".tgi[0].ni[0].y" 363.6904296875;
	setAttr ".tgi[0].ni[0].nvs" 18306;
	setAttr ".tgi[0].ni[1].x" 1271.0103759765625;
	setAttr ".tgi[0].ni[1].y" 310.97665405273438;
	setAttr ".tgi[0].ni[1].nvs" 18306;
	setAttr ".tgi[0].ni[2].x" 975.882568359375;
	setAttr ".tgi[0].ni[2].y" 489.12249755859375;
	setAttr ".tgi[0].ni[2].nvs" 18306;
	setAttr ".tgi[0].ni[3].x" -176.78202819824219;
	setAttr ".tgi[0].ni[3].y" 156.78202819824219;
	setAttr ".tgi[0].ni[3].nvs" 18306;
	setAttr ".tgi[0].ni[4].x" 764.99212646484375;
	setAttr ".tgi[0].ni[4].y" 315.613525390625;
	setAttr ".tgi[0].ni[4].nvs" 18304;
	setAttr ".tgi[0].ni[5].x" 720.02178955078125;
	setAttr ".tgi[0].ni[5].y" -94.740234375;
	setAttr ".tgi[0].ni[5].nvs" 18306;
	setAttr ".tgi[0].ni[6].x" 219.64285278320312;
	setAttr ".tgi[0].ni[6].y" 206.547607421875;
	setAttr ".tgi[0].ni[6].nvs" 18304;
	setAttr ".tgi[0].ni[7].x" 1014.81640625;
	setAttr ".tgi[0].ni[7].y" 509.65093994140625;
	setAttr ".tgi[0].ni[7].nvs" 18304;
	setAttr ".tgi[0].ni[8].x" 1471.210205078125;
	setAttr ".tgi[0].ni[8].y" 79.333366394042969;
	setAttr ".tgi[0].ni[8].nvs" 18304;
	setAttr ".tgi[0].ni[9].x" -26.63153076171875;
	setAttr ".tgi[0].ni[9].y" 345.17919921875;
	setAttr ".tgi[0].ni[9].nvs" 18304;
	setAttr ".tgi[0].ni[10].x" 1033.86669921875;
	setAttr ".tgi[0].ni[10].y" 153.61918640136719;
	setAttr ".tgi[0].ni[10].nvs" 18306;
	setAttr ".tgi[0].ni[11].x" 736.0802001953125;
	setAttr ".tgi[0].ni[11].y" 126.55556488037109;
	setAttr ".tgi[0].ni[11].nvs" 18306;
	setAttr ".tgi[0].ni[12].x" 691.02105712890625;
	setAttr ".tgi[0].ni[12].y" -121.70267486572266;
	setAttr ".tgi[0].ni[12].nvs" 18304;
	setAttr ".tgi[0].ni[13].x" 694.7547607421875;
	setAttr ".tgi[0].ni[13].y" 233.32156372070312;
	setAttr ".tgi[0].ni[13].nvs" 18304;
	setAttr ".tgi[0].ni[14].x" 476.35516357421875;
	setAttr ".tgi[0].ni[14].y" 486.94085693359375;
	setAttr ".tgi[0].ni[14].nvs" 18306;
	setAttr ".tgi[0].ni[15].x" 736.28350830078125;
	setAttr ".tgi[0].ni[15].y" 412.89151000976562;
	setAttr ".tgi[0].ni[15].nvs" 18304;
	setAttr ".tgi[0].ni[16].x" 84.231971740722656;
	setAttr ".tgi[0].ni[16].y" 423.47000122070312;
	setAttr ".tgi[0].ni[16].nvs" 18306;
	setAttr ".tgi[0].ni[17].x" 14.804662704467773;
	setAttr ".tgi[0].ni[17].y" 564.82659912109375;
	setAttr ".tgi[0].ni[17].nvs" 18304;
	setAttr ".tgi[0].ni[18].x" 238.83090209960938;
	setAttr ".tgi[0].ni[18].y" 572.38262939453125;
	setAttr ".tgi[0].ni[18].nvs" 18306;
select -ne :time1;
	setAttr ".o" 0;
select -ne :hardwareRenderingGlobals;
	setAttr ".otfna" -type "stringArray" 22 "NURBS Curves" "NURBS Surfaces" "Polygons" "Subdiv Surface" "Particles" "Particle Instance" "Fluids" "Strokes" "Image Planes" "UI" "Lights" "Cameras" "Locators" "Joints" "IK Handles" "Deformers" "Motion Trails" "Components" "Hair Systems" "Follicles" "Misc. UI" "Ornaments"  ;
	setAttr ".otfva" -type "Int32Array" 22 0 1 1 1 1 1
		 1 1 1 0 0 0 0 0 0 0 0 0
		 0 0 0 0 ;
	setAttr ".etmr" yes;
select -ne :renderPartition;
	setAttr -s 4 ".st";
select -ne :renderGlobalsList1;
select -ne :defaultShaderList1;
	setAttr -s 6 ".s";
select -ne :postProcessList1;
	setAttr -s 2 ".p";
select -ne :defaultRenderUtilityList1;
	setAttr -s 6 ".u";
select -ne :defaultRenderingList1;
select -ne :defaultTextureList1;
	setAttr -s 5 ".tx";
select -ne :initialShadingGroup;
	setAttr ".ro" yes;
select -ne :initialParticleSE;
	setAttr ".ro" yes;
select -ne :defaultResolution;
	setAttr ".pa" 1;
select -ne :defaultColorMgtGlobals;
	setAttr ".cme" no;
select -ne :hardwareRenderGlobals;
	setAttr ".ctrs" 256;
	setAttr ".btrs" 512;
connectAttr "polyPlane1.out" "pPlaneShape1.i";
connectAttr "polySphere1.out" "pSphereShape1.i";
connectAttr "polyPlane2.out" "pPlaneShape3.i";
connectAttr ":time1.o" ":defaultClapper.ct";
connectAttr "grayScottNode1.feed" ":defaultClapper.wch[1].wpl";
connectAttr "grayScottNode1.kill" ":defaultClapper.wch[2].wpl";
connectAttr "grayScottNode1.da" ":defaultClapper.wch[3].wpl";
connectAttr "grayScottNode1.db" ":defaultClapper.wch[4].wpl";
relationship "link" ":lightLinker1" ":initialShadingGroup.message" ":defaultLightSet.message";
relationship "link" ":lightLinker1" ":initialParticleSE.message" ":defaultLightSet.message";
relationship "link" ":lightLinker1" "surfaceShader1SG.message" ":defaultLightSet.message";
relationship "link" ":lightLinker1" "surfaceShader2SG.message" ":defaultLightSet.message";
relationship "shadowLink" ":lightLinker1" ":initialShadingGroup.message" ":defaultLightSet.message";
relationship "shadowLink" ":lightLinker1" ":initialParticleSE.message" ":defaultLightSet.message";
relationship "shadowLink" ":lightLinker1" "surfaceShader1SG.message" ":defaultLightSet.message";
relationship "shadowLink" ":lightLinker1" "surfaceShader2SG.message" ":defaultLightSet.message";
connectAttr "layerManager.dli[0]" "defaultLayer.id";
connectAttr "renderLayerManager.rlmi[0]" "defaultRenderLayer.rlid";
connectAttr "place2dTexture1.o" "grayScottShader1.uv";
connectAttr "grayScottNode1.out" "grayScottShader1.gsd";
connectAttr "grayScottShader1_defaultColorR.o" "grayScottShader1.dcr";
connectAttr "grayScottShader1_defaultColorG.o" "grayScottShader1.dcg";
connectAttr "grayScottShader1_defaultColorB.o" "grayScottShader1.dcb";
connectAttr ":time1.o" "grayScottNode1.ct";
connectAttr "ramp2.ocr" "grayScottNode1.ksp";
connectAttr "feedKill.oc" "grayScottNode1.fkl";
connectAttr "grayScottShader1.oc" "gsSurfaceShader1.oc";
connectAttr "gsSurfaceShader1.oc" "surfaceShader1SG.ss";
connectAttr "pPlaneShape1.iog" "surfaceShader1SG.dsm" -na;
connectAttr "pSphereShape1.iog" "surfaceShader1SG.dsm" -na;
connectAttr "pPlaneShape3.iog" "surfaceShader1SG.dsm" -na;
connectAttr "surfaceShader1SG.msg" "materialInfo1.sg";
connectAttr "gsSurfaceShader1.msg" "materialInfo1.m";
connectAttr "gsSurfaceShader1.msg" "materialInfo1.t" -na;
connectAttr "pPlaneShape2.iog" "surfaceShader2SG.dsm" -na;
connectAttr "surfaceShader2SG.msg" "materialInfo2.sg";
connectAttr "place2dTexture3.ofs" "ramp1.fs";
connectAttr "grayScottShader1.ocg" "ramp1.v";
connectAttr "ramp1_colorEntryList_2__position.o" "ramp1.cel[2].ep";
connectAttr "grayScottShader1.msg" "hyperShadePrimaryNodeEditorSavedTabsInfo.tgi[0].ni[0].dn"
		;
connectAttr "place2dTexture1.msg" "hyperShadePrimaryNodeEditorSavedTabsInfo.tgi[0].ni[1].dn"
		;
connectAttr "place2dTexture4.o" "ramp2.uv";
connectAttr "place2dTexture4.ofs" "ramp2.fs";
connectAttr "feedRamp.ocr" "feedKill.ocr";
connectAttr "killRamp.ocr" "feedKill.ocg";
connectAttr "place2dTexture5.o" "feedRamp.uv";
connectAttr "place2dTexture5.ofs" "feedRamp.fs";
connectAttr "place2dTexture6.o" "killRamp.uv";
connectAttr "place2dTexture6.ofs" "killRamp.fs";
connectAttr "ramp2.msg" "MayaNodeEditorSavedTabsInfo.tgi[0].ni[0].dn";
connectAttr "gsSurfaceShader1.msg" "MayaNodeEditorSavedTabsInfo.tgi[0].ni[1].dn"
		;
connectAttr "grayScottNode1.msg" "MayaNodeEditorSavedTabsInfo.tgi[0].ni[2].dn";
connectAttr ":time1.msg" "MayaNodeEditorSavedTabsInfo.tgi[0].ni[3].dn";
connectAttr "surfaceShader2SG.msg" "MayaNodeEditorSavedTabsInfo.tgi[0].ni[4].dn"
		;
connectAttr "place2dTexture3.msg" "MayaNodeEditorSavedTabsInfo.tgi[0].ni[5].dn";
connectAttr "place2dTexture4.msg" "MayaNodeEditorSavedTabsInfo.tgi[0].ni[6].dn";
connectAttr "materialInfo2.msg" "MayaNodeEditorSavedTabsInfo.tgi[0].ni[7].dn";
connectAttr "surfaceShader1SG.msg" "MayaNodeEditorSavedTabsInfo.tgi[0].ni[8].dn"
		;
connectAttr "place2dTexture2.msg" "MayaNodeEditorSavedTabsInfo.tgi[0].ni[9].dn";
connectAttr "ramp1.msg" "MayaNodeEditorSavedTabsInfo.tgi[0].ni[10].dn";
connectAttr "grayScottShader1.msg" "MayaNodeEditorSavedTabsInfo.tgi[0].ni[11].dn"
		;
connectAttr "place2dTexture1.msg" "MayaNodeEditorSavedTabsInfo.tgi[0].ni[12].dn"
		;
connectAttr "materialInfo1.msg" "MayaNodeEditorSavedTabsInfo.tgi[0].ni[13].dn";
connectAttr "feedKill.msg" "MayaNodeEditorSavedTabsInfo.tgi[0].ni[14].dn";
connectAttr "place2dTexture6.msg" "MayaNodeEditorSavedTabsInfo.tgi[0].ni[15].dn"
		;
connectAttr "killRamp.msg" "MayaNodeEditorSavedTabsInfo.tgi[0].ni[16].dn";
connectAttr "place2dTexture5.msg" "MayaNodeEditorSavedTabsInfo.tgi[0].ni[17].dn"
		;
connectAttr "feedRamp.msg" "MayaNodeEditorSavedTabsInfo.tgi[0].ni[18].dn";
connectAttr "surfaceShader1SG.pa" ":renderPartition.st" -na;
connectAttr "surfaceShader2SG.pa" ":renderPartition.st" -na;
connectAttr "gsSurfaceShader1.msg" ":defaultShaderList1.s" -na;
connectAttr "feedKill.msg" ":defaultShaderList1.s" -na;
connectAttr "place2dTexture1.msg" ":defaultRenderUtilityList1.u" -na;
connectAttr "place2dTexture2.msg" ":defaultRenderUtilityList1.u" -na;
connectAttr "place2dTexture3.msg" ":defaultRenderUtilityList1.u" -na;
connectAttr "place2dTexture4.msg" ":defaultRenderUtilityList1.u" -na;
connectAttr "place2dTexture5.msg" ":defaultRenderUtilityList1.u" -na;
connectAttr "place2dTexture6.msg" ":defaultRenderUtilityList1.u" -na;
connectAttr "defaultRenderLayer.msg" ":defaultRenderingList1.r" -na;
connectAttr "grayScottShader1.msg" ":defaultTextureList1.tx" -na;
connectAttr "ramp1.msg" ":defaultTextureList1.tx" -na;
connectAttr "ramp2.msg" ":defaultTextureList1.tx" -na;
connectAttr "feedRamp.msg" ":defaultTextureList1.tx" -na;
connectAttr "killRamp.msg" ":defaultTextureList1.tx" -na;
// End of grayScottMapTest.ma
